Grammar

    0 $accept: loader_start $end

    1 @1: /* empty */

    2 loader_start: @1 loader_lines

    3 loader_lines: line
    4             | loader_lines line

    5 line: one_line NL
    6     | NL

    7 one_line: command_line
    8         | instance_line

    9 command_line: class_command
   10             | id_command

   11 id_command: CMD_ID IDENTIFIER INT_LIT

   12 class_command: CMD_CLASS IDENTIFIER class_commamd_spec

   13 class_commamd_spec: attribute_list
   14                   | attribute_list constructor_spec
   15                   | attribute_list_qualifier attribute_list
   16                   | attribute_list_qualifier attribute_list constructor_spec

   17 attribute_list_qualifier: CLASS
   18                         | SHARED
   19                         | DEFAULT

   20 attribute_list: START_PAREN END_PAREN
   21               | START_PAREN attribute_names END_PAREN

   22 attribute_names: attribute_name
   23                | attribute_names attribute_name
   24                | attribute_names COMMA attribute_name

   25 attribute_name: IDENTIFIER

   26 constructor_spec: CMD_CONSTRUCTOR IDENTIFIER constructor_argument_list

   27 constructor_argument_list: START_PAREN END_PAREN
   28                          | START_PAREN argument_names END_PAREN

   29 argument_names: argument_name
   30               | argument_names argument_name
   31               | argument_names COMMA argument_name

   32 argument_name: IDENTIFIER

   33 instance_line: object_id
   34              | object_id constant_list
   35              | constant_list

   36 object_id: OID_

   37 constant_list: constant
   38              | constant_list constant

   39 constant: ansi_string
   40         | dq_string
   41         | nchar_string
   42         | bit_string
   43         | sql2_date
   44         | sql2_time
   45         | sql2_timestamp
   46         | utime
   47         | sql2_datetime
   48         | NULL_
   49         | TIME_LIT4
   50         | TIME_LIT42
   51         | TIME_LIT3
   52         | TIME_LIT31
   53         | TIME_LIT2
   54         | TIME_LIT1
   55         | INT_LIT
   56         | REAL_LIT
   57         | DATE_LIT2
   58         | monetary
   59         | object_reference
   60         | set_constant
   61         | system_object_reference

   62 ansi_string: Quote SQS_String_Body

   63 nchar_string: NQuote SQS_String_Body

   64 dq_string: DQuote DQS_String_Body

   65 sql2_date: DATE_ Quote SQS_String_Body

   66 sql2_time: TIME Quote SQS_String_Body

   67 sql2_timestamp: TIMESTAMP Quote SQS_String_Body

   68 utime: UTIME Quote SQS_String_Body

   69 sql2_datetime: DATETIME Quote SQS_String_Body

   70 bit_string: BQuote SQS_String_Body
   71           | XQuote SQS_String_Body

   72 object_reference: OBJECT_REFERENCE class_identifier
   73                 | OBJECT_REFERENCE class_identifier instance_number

   74 class_identifier: INT_LIT
   75                 | IDENTIFIER

   76 instance_number: OID_DELIMETER INT_LIT

   77 set_constant: SET_START_BRACE SET_END_BRACE
   78             | SET_START_BRACE set_elements SET_END_BRACE

   79 set_elements: constant
   80             | set_elements constant
   81             | set_elements COMMA constant
   82             | set_elements NL constant
   83             | set_elements COMMA NL constant

   84 system_object_reference: ref_type Quote SQS_String_Body

   85 ref_type: REF_ELO_INT
   86         | REF_ELO_EXT
   87         | REF_USER
   88         | REF_CLASS

   89 monetary: DOLLAR_SYMBOL REAL_LIT
   90         | YEN_SYMBOL REAL_LIT
   91         | WON_SYMBOL REAL_LIT
   92         | TURKISH_LIRA_CURRENCY REAL_LIT
   93         | BACKSLASH REAL_LIT
   94         | BRITISH_POUND_SYMBOL REAL_LIT
   95         | CAMBODIAN_RIEL_SYMBOL REAL_LIT
   96         | CHINESE_RENMINBI_SYMBOL REAL_LIT
   97         | INDIAN_RUPEE_SYMBOL REAL_LIT
   98         | RUSSIAN_RUBLE_SYMBOL REAL_LIT
   99         | AUSTRALIAN_DOLLAR_SYMBOL REAL_LIT
  100         | CANADIAN_DOLLAR_SYMBOL REAL_LIT
  101         | BRASILIAN_REAL_SYMBOL REAL_LIT
  102         | ROMANIAN_LEU_SYMBOL REAL_LIT
  103         | EURO_SYMBOL REAL_LIT
  104         | SWISS_FRANC_SYMBOL REAL_LIT
  105         | DANISH_KRONE_SYMBOL REAL_LIT
  106         | NORWEGIAN_KRONE_SYMBOL REAL_LIT
  107         | BULGARIAN_LEV_SYMBOL REAL_LIT
  108         | VIETNAMESE_DONG_SYMBOL REAL_LIT
  109         | CZECH_KORUNA_SYMBOL REAL_LIT
  110         | POLISH_ZLOTY_SYMBOL REAL_LIT
  111         | SWEDISH_KRONA_SYMBOL REAL_LIT
  112         | CROATIAN_KUNA_SYMBOL REAL_LIT
  113         | SERBIAN_DINAR_SYMBOL REAL_LIT


Terminals, with rules where they appear

$end (0) 0
error (256)
NL (258) 5 6 82 83
NULL_ (259) 48
CLASS (260) 17
SHARED (261) 18
DEFAULT (262) 19
DATE_ (263) 65
TIME (264) 66
UTIME (265) 68
TIMESTAMP (266) 67
DATETIME (267) 69
CMD_ID (268) 11
CMD_CLASS (269) 12
CMD_CONSTRUCTOR (270) 26
REF_ELO_INT (271) 85
REF_ELO_EXT (272) 86
REF_USER (273) 87
REF_CLASS (274) 88
OBJECT_REFERENCE (275) 72 73
OID_DELIMETER (276) 76
SET_START_BRACE (277) 77 78
SET_END_BRACE (278) 77 78
START_PAREN (279) 20 21 27 28
END_PAREN (280) 20 21 27 28
REAL_LIT (281) 56 89 90 91 92 93 94 95 96 97 98 99 100 101 102 103
    104 105 106 107 108 109 110 111 112 113
INT_LIT (282) 11 55 74 76
OID_ (283) 36
TIME_LIT4 (284) 49
TIME_LIT42 (285) 50
TIME_LIT3 (286) 51
TIME_LIT31 (287) 52
TIME_LIT2 (288) 53
TIME_LIT1 (289) 54
DATE_LIT2 (290) 57
YEN_SYMBOL (291) 90
WON_SYMBOL (292) 91
BACKSLASH (293) 93
DOLLAR_SYMBOL (294) 89
TURKISH_LIRA_CURRENCY (295) 92
BRITISH_POUND_SYMBOL (296) 94
CAMBODIAN_RIEL_SYMBOL (297) 95
CHINESE_RENMINBI_SYMBOL (298) 96
INDIAN_RUPEE_SYMBOL (299) 97
RUSSIAN_RUBLE_SYMBOL (300) 98
AUSTRALIAN_DOLLAR_SYMBOL (301) 99
CANADIAN_DOLLAR_SYMBOL (302) 100
BRASILIAN_REAL_SYMBOL (303) 101
ROMANIAN_LEU_SYMBOL (304) 102
EURO_SYMBOL (305) 103
SWISS_FRANC_SYMBOL (306) 104
DANISH_KRONE_SYMBOL (307) 105
NORWEGIAN_KRONE_SYMBOL (308) 106
BULGARIAN_LEV_SYMBOL (309) 107
VIETNAMESE_DONG_SYMBOL (310) 108
CZECH_KORUNA_SYMBOL (311) 109
POLISH_ZLOTY_SYMBOL (312) 110
SWEDISH_KRONA_SYMBOL (313) 111
CROATIAN_KUNA_SYMBOL (314) 112
SERBIAN_DINAR_SYMBOL (315) 113
IDENTIFIER (316) 11 12 25 26 32 75
Quote (317) 62 65 66 67 68 69 84
DQuote (318) 64
NQuote (319) 63
BQuote (320) 70
XQuote (321) 71
SQS_String_Body (322) 62 63 65 66 67 68 69 70 71 84
DQS_String_Body (323) 64
COMMA (324) 24 31 81 83


Nonterminals, with rules where they appear

$accept (70)
    on left: 0
loader_start (71)
    on left: 2, on right: 0
@1 (72)
    on left: 1, on right: 2
loader_lines (73)
    on left: 3 4, on right: 2 4
line (74)
    on left: 5 6, on right: 3 4
one_line (75)
    on left: 7 8, on right: 5
command_line (76)
    on left: 9 10, on right: 7
id_command (77)
    on left: 11, on right: 10
class_command (78)
    on left: 12, on right: 9
class_commamd_spec (79)
    on left: 13 14 15 16, on right: 12
attribute_list_qualifier (80)
    on left: 17 18 19, on right: 15 16
attribute_list (81)
    on left: 20 21, on right: 13 14 15 16
attribute_names (82)
    on left: 22 23 24, on right: 21 23 24
attribute_name (83)
    on left: 25, on right: 22 23 24
constructor_spec (84)
    on left: 26, on right: 14 16
constructor_argument_list (85)
    on left: 27 28, on right: 26
argument_names (86)
    on left: 29 30 31, on right: 28 30 31
argument_name (87)
    on left: 32, on right: 29 30 31
instance_line (88)
    on left: 33 34 35, on right: 8
object_id (89)
    on left: 36, on right: 33 34
constant_list (90)
    on left: 37 38, on right: 34 35 38
constant (91)
    on left: 39 40 41 42 43 44 45 46 47 48 49 50 51 52 53 54 55 56
    57 58 59 60 61, on right: 37 38 79 80 81 82 83
ansi_string (92)
    on left: 62, on right: 39
nchar_string (93)
    on left: 63, on right: 41
dq_string (94)
    on left: 64, on right: 40
sql2_date (95)
    on left: 65, on right: 43
sql2_time (96)
    on left: 66, on right: 44
sql2_timestamp (97)
    on left: 67, on right: 45
utime (98)
    on left: 68, on right: 46
sql2_datetime (99)
    on left: 69, on right: 47
bit_string (100)
    on left: 70 71, on right: 42
object_reference (101)
    on left: 72 73, on right: 59
class_identifier (102)
    on left: 74 75, on right: 72 73
instance_number (103)
    on left: 76, on right: 73
set_constant (104)
    on left: 77 78, on right: 60
set_elements (105)
    on left: 79 80 81 82 83, on right: 78 80 81 82 83
system_object_reference (106)
    on left: 84, on right: 61
ref_type (107)
    on left: 85 86 87 88, on right: 84
monetary (108)
    on left: 89 90 91 92 93 94 95 96 97 98 99 100 101 102 103 104 105
    106 107 108 109 110 111 112 113, on right: 58


state 0

    0 $accept: . loader_start $end
    1 @1: .
    2 loader_start: . @1 loader_lines

    $default  reduce using rule 1 (@1)

    loader_start  go to state 1
    @1            go to state 2


state 1

    0 $accept: loader_start . $end

    $end  shift, and go to state 3


state 2

    2 loader_start: @1 . loader_lines
    3 loader_lines: . line
    4             | . loader_lines line
    5 line: . one_line NL
    6     | . NL
    7 one_line: . command_line
    8         | . instance_line
    9 command_line: . class_command
   10             | . id_command
   11 id_command: . CMD_ID IDENTIFIER INT_LIT
   12 class_command: . CMD_CLASS IDENTIFIER class_commamd_spec
   33 instance_line: . object_id
   34              | . object_id constant_list
   35              | . constant_list
   36 object_id: . OID_
   37 constant_list: . constant
   38              | . constant_list constant
   39 constant: . ansi_string
   40         | . dq_string
   41         | . nchar_string
   42         | . bit_string
   43         | . sql2_date
   44         | . sql2_time
   45         | . sql2_timestamp
   46         | . utime
   47         | . sql2_datetime
   48         | . NULL_
   49         | . TIME_LIT4
   50         | . TIME_LIT42
   51         | . TIME_LIT3
   52         | . TIME_LIT31
   53         | . TIME_LIT2
   54         | . TIME_LIT1
   55         | . INT_LIT
   56         | . REAL_LIT
   57         | . DATE_LIT2
   58         | . monetary
   59         | . object_reference
   60         | . set_constant
   61         | . system_object_reference
   62 ansi_string: . Quote SQS_String_Body
   63 nchar_string: . NQuote SQS_String_Body
   64 dq_string: . DQuote DQS_String_Body
   65 sql2_date: . DATE_ Quote SQS_String_Body
   66 sql2_time: . TIME Quote SQS_String_Body
   67 sql2_timestamp: . TIMESTAMP Quote SQS_String_Body
   68 utime: . UTIME Quote SQS_String_Body
   69 sql2_datetime: . DATETIME Quote SQS_String_Body
   70 bit_string: . BQuote SQS_String_Body
   71           | . XQuote SQS_String_Body
   72 object_reference: . OBJECT_REFERENCE class_identifier
   73                 | . OBJECT_REFERENCE class_identifier instance_number
   77 set_constant: . SET_START_BRACE SET_END_BRACE
   78             | . SET_START_BRACE set_elements SET_END_BRACE
   84 system_object_reference: . ref_type Quote SQS_String_Body
   85 ref_type: . REF_ELO_INT
   86         | . REF_ELO_EXT
   87         | . REF_USER
   88         | . REF_CLASS
   89 monetary: . DOLLAR_SYMBOL REAL_LIT
   90         | . YEN_SYMBOL REAL_LIT
   91         | . WON_SYMBOL REAL_LIT
   92         | . TURKISH_LIRA_CURRENCY REAL_LIT
   93         | . BACKSLASH REAL_LIT
   94         | . BRITISH_POUND_SYMBOL REAL_LIT
   95         | . CAMBODIAN_RIEL_SYMBOL REAL_LIT
   96         | . CHINESE_RENMINBI_SYMBOL REAL_LIT
   97         | . INDIAN_RUPEE_SYMBOL REAL_LIT
   98         | . RUSSIAN_RUBLE_SYMBOL REAL_LIT
   99         | . AUSTRALIAN_DOLLAR_SYMBOL REAL_LIT
  100         | . CANADIAN_DOLLAR_SYMBOL REAL_LIT
  101         | . BRASILIAN_REAL_SYMBOL REAL_LIT
  102         | . ROMANIAN_LEU_SYMBOL REAL_LIT
  103         | . EURO_SYMBOL REAL_LIT
  104         | . SWISS_FRANC_SYMBOL REAL_LIT
  105         | . DANISH_KRONE_SYMBOL REAL_LIT
  106         | . NORWEGIAN_KRONE_SYMBOL REAL_LIT
  107         | . BULGARIAN_LEV_SYMBOL REAL_LIT
  108         | . VIETNAMESE_DONG_SYMBOL REAL_LIT
  109         | . CZECH_KORUNA_SYMBOL REAL_LIT
  110         | . POLISH_ZLOTY_SYMBOL REAL_LIT
  111         | . SWEDISH_KRONA_SYMBOL REAL_LIT
  112         | . CROATIAN_KUNA_SYMBOL REAL_LIT
  113         | . SERBIAN_DINAR_SYMBOL REAL_LIT

    NL                        shift, and go to state 4
    NULL_                     shift, and go to state 5
    DATE_                     shift, and go to state 6
    TIME                      shift, and go to state 7
    UTIME                     shift, and go to state 8
    TIMESTAMP                 shift, and go to state 9
    DATETIME                  shift, and go to state 10
    CMD_ID                    shift, and go to state 11
    CMD_CLASS                 shift, and go to state 12
    REF_ELO_INT               shift, and go to state 13
    REF_ELO_EXT               shift, and go to state 14
    REF_USER                  shift, and go to state 15
    REF_CLASS                 shift, and go to state 16
    OBJECT_REFERENCE          shift, and go to state 17
    SET_START_BRACE           shift, and go to state 18
    REAL_LIT                  shift, and go to state 19
    INT_LIT                   shift, and go to state 20
    OID_                      shift, and go to state 21
    TIME_LIT4                 shift, and go to state 22
    TIME_LIT42                shift, and go to state 23
    TIME_LIT3                 shift, and go to state 24
    TIME_LIT31                shift, and go to state 25
    TIME_LIT2                 shift, and go to state 26
    TIME_LIT1                 shift, and go to state 27
    DATE_LIT2                 shift, and go to state 28
    YEN_SYMBOL                shift, and go to state 29
    WON_SYMBOL                shift, and go to state 30
    BACKSLASH                 shift, and go to state 31
    DOLLAR_SYMBOL             shift, and go to state 32
    TURKISH_LIRA_CURRENCY     shift, and go to state 33
    BRITISH_POUND_SYMBOL      shift, and go to state 34
    CAMBODIAN_RIEL_SYMBOL     shift, and go to state 35
    CHINESE_RENMINBI_SYMBOL   shift, and go to state 36
    INDIAN_RUPEE_SYMBOL       shift, and go to state 37
    RUSSIAN_RUBLE_SYMBOL      shift, and go to state 38
    AUSTRALIAN_DOLLAR_SYMBOL  shift, and go to state 39
    CANADIAN_DOLLAR_SYMBOL    shift, and go to state 40
    BRASILIAN_REAL_SYMBOL     shift, and go to state 41
    ROMANIAN_LEU_SYMBOL       shift, and go to state 42
    EURO_SYMBOL               shift, and go to state 43
    SWISS_FRANC_SYMBOL        shift, and go to state 44
    DANISH_KRONE_SYMBOL       shift, and go to state 45
    NORWEGIAN_KRONE_SYMBOL    shift, and go to state 46
    BULGARIAN_LEV_SYMBOL      shift, and go to state 47
    VIETNAMESE_DONG_SYMBOL    shift, and go to state 48
    CZECH_KORUNA_SYMBOL       shift, and go to state 49
    POLISH_ZLOTY_SYMBOL       shift, and go to state 50
    SWEDISH_KRONA_SYMBOL      shift, and go to state 51
    CROATIAN_KUNA_SYMBOL      shift, and go to state 52
    SERBIAN_DINAR_SYMBOL      shift, and go to state 53
    Quote                     shift, and go to state 54
    DQuote                    shift, and go to state 55
    NQuote                    shift, and go to state 56
    BQuote                    shift, and go to state 57
    XQuote                    shift, and go to state 58

    loader_lines             go to state 59
    line                     go to state 60
    one_line                 go to state 61
    command_line             go to state 62
    id_command               go to state 63
    class_command            go to state 64
    instance_line            go to state 65
    object_id                go to state 66
    constant_list            go to state 67
    constant                 go to state 68
    ansi_string              go to state 69
    nchar_string             go to state 70
    dq_string                go to state 71
    sql2_date                go to state 72
    sql2_time                go to state 73
    sql2_timestamp           go to state 74
    utime                    go to state 75
    sql2_datetime            go to state 76
    bit_string               go to state 77
    object_reference         go to state 78
    set_constant             go to state 79
    system_object_reference  go to state 80
    ref_type                 go to state 81
    monetary                 go to state 82


state 3

    0 $accept: loader_start $end .

    $default  accept


state 4

    6 line: NL .

    $default  reduce using rule 6 (line)


state 5

   48 constant: NULL_ .

    $default  reduce using rule 48 (constant)


state 6

   65 sql2_date: DATE_ . Quote SQS_String_Body

    Quote  shift, and go to state 83


state 7

   66 sql2_time: TIME . Quote SQS_String_Body

    Quote  shift, and go to state 84


state 8

   68 utime: UTIME . Quote SQS_String_Body

    Quote  shift, and go to state 85


state 9

   67 sql2_timestamp: TIMESTAMP . Quote SQS_String_Body

    Quote  shift, and go to state 86


state 10

   69 sql2_datetime: DATETIME . Quote SQS_String_Body

    Quote  shift, and go to state 87


state 11

   11 id_command: CMD_ID . IDENTIFIER INT_LIT

    IDENTIFIER  shift, and go to state 88


state 12

   12 class_command: CMD_CLASS . IDENTIFIER class_commamd_spec

    IDENTIFIER  shift, and go to state 89


state 13

   85 ref_type: REF_ELO_INT .

    $default  reduce using rule 85 (ref_type)


state 14

   86 ref_type: REF_ELO_EXT .

    $default  reduce using rule 86 (ref_type)


state 15

   87 ref_type: REF_USER .

    $default  reduce using rule 87 (ref_type)


state 16

   88 ref_type: REF_CLASS .

    $default  reduce using rule 88 (ref_type)


state 17

   72 object_reference: OBJECT_REFERENCE . class_identifier
   73                 | OBJECT_REFERENCE . class_identifier instance_number
   74 class_identifier: . INT_LIT
   75                 | . IDENTIFIER

    INT_LIT     shift, and go to state 90
    IDENTIFIER  shift, and go to state 91

    class_identifier  go to state 92


state 18

   39 constant: . ansi_string
   40         | . dq_string
   41         | . nchar_string
   42         | . bit_string
   43         | . sql2_date
   44         | . sql2_time
   45         | . sql2_timestamp
   46         | . utime
   47         | . sql2_datetime
   48         | . NULL_
   49         | . TIME_LIT4
   50         | . TIME_LIT42
   51         | . TIME_LIT3
   52         | . TIME_LIT31
   53         | . TIME_LIT2
   54         | . TIME_LIT1
   55         | . INT_LIT
   56         | . REAL_LIT
   57         | . DATE_LIT2
   58         | . monetary
   59         | . object_reference
   60         | . set_constant
   61         | . system_object_reference
   62 ansi_string: . Quote SQS_String_Body
   63 nchar_string: . NQuote SQS_String_Body
   64 dq_string: . DQuote DQS_String_Body
   65 sql2_date: . DATE_ Quote SQS_String_Body
   66 sql2_time: . TIME Quote SQS_String_Body
   67 sql2_timestamp: . TIMESTAMP Quote SQS_String_Body
   68 utime: . UTIME Quote SQS_String_Body
   69 sql2_datetime: . DATETIME Quote SQS_String_Body
   70 bit_string: . BQuote SQS_String_Body
   71           | . XQuote SQS_String_Body
   72 object_reference: . OBJECT_REFERENCE class_identifier
   73                 | . OBJECT_REFERENCE class_identifier instance_number
   77 set_constant: . SET_START_BRACE SET_END_BRACE
   77             | SET_START_BRACE . SET_END_BRACE
   78             | . SET_START_BRACE set_elements SET_END_BRACE
   78             | SET_START_BRACE . set_elements SET_END_BRACE
   79 set_elements: . constant
   80             | . set_elements constant
   81             | . set_elements COMMA constant
   82             | . set_elements NL constant
   83             | . set_elements COMMA NL constant
   84 system_object_reference: . ref_type Quote SQS_String_Body
   85 ref_type: . REF_ELO_INT
   86         | . REF_ELO_EXT
   87         | . REF_USER
   88         | . REF_CLASS
   89 monetary: . DOLLAR_SYMBOL REAL_LIT
   90         | . YEN_SYMBOL REAL_LIT
   91         | . WON_SYMBOL REAL_LIT
   92         | . TURKISH_LIRA_CURRENCY REAL_LIT
   93         | . BACKSLASH REAL_LIT
   94         | . BRITISH_POUND_SYMBOL REAL_LIT
   95         | . CAMBODIAN_RIEL_SYMBOL REAL_LIT
   96         | . CHINESE_RENMINBI_SYMBOL REAL_LIT
   97         | . INDIAN_RUPEE_SYMBOL REAL_LIT
   98         | . RUSSIAN_RUBLE_SYMBOL REAL_LIT
   99         | . AUSTRALIAN_DOLLAR_SYMBOL REAL_LIT
  100         | . CANADIAN_DOLLAR_SYMBOL REAL_LIT
  101         | . BRASILIAN_REAL_SYMBOL REAL_LIT
  102         | . ROMANIAN_LEU_SYMBOL REAL_LIT
  103         | . EURO_SYMBOL REAL_LIT
  104         | . SWISS_FRANC_SYMBOL REAL_LIT
  105         | . DANISH_KRONE_SYMBOL REAL_LIT
  106         | . NORWEGIAN_KRONE_SYMBOL REAL_LIT
  107         | . BULGARIAN_LEV_SYMBOL REAL_LIT
  108         | . VIETNAMESE_DONG_SYMBOL REAL_LIT
  109         | . CZECH_KORUNA_SYMBOL REAL_LIT
  110         | . POLISH_ZLOTY_SYMBOL REAL_LIT
  111         | . SWEDISH_KRONA_SYMBOL REAL_LIT
  112         | . CROATIAN_KUNA_SYMBOL REAL_LIT
  113         | . SERBIAN_DINAR_SYMBOL REAL_LIT

    NULL_                     shift, and go to state 5
    DATE_                     shift, and go to state 6
    TIME                      shift, and go to state 7
    UTIME                     shift, and go to state 8
    TIMESTAMP                 shift, and go to state 9
    DATETIME                  shift, and go to state 10
    REF_ELO_INT               shift, and go to state 13
    REF_ELO_EXT               shift, and go to state 14
    REF_USER                  shift, and go to state 15
    REF_CLASS                 shift, and go to state 16
    OBJECT_REFERENCE          shift, and go to state 17
    SET_START_BRACE           shift, and go to state 18
    SET_END_BRACE             shift, and go to state 93
    REAL_LIT                  shift, and go to state 19
    INT_LIT                   shift, and go to state 20
    TIME_LIT4                 shift, and go to state 22
    TIME_LIT42                shift, and go to state 23
    TIME_LIT3                 shift, and go to state 24
    TIME_LIT31                shift, and go to state 25
    TIME_LIT2                 shift, and go to state 26
    TIME_LIT1                 shift, and go to state 27
    DATE_LIT2                 shift, and go to state 28
    YEN_SYMBOL                shift, and go to state 29
    WON_SYMBOL                shift, and go to state 30
    BACKSLASH                 shift, and go to state 31
    DOLLAR_SYMBOL             shift, and go to state 32
    TURKISH_LIRA_CURRENCY     shift, and go to state 33
    BRITISH_POUND_SYMBOL      shift, and go to state 34
    CAMBODIAN_RIEL_SYMBOL     shift, and go to state 35
    CHINESE_RENMINBI_SYMBOL   shift, and go to state 36
    INDIAN_RUPEE_SYMBOL       shift, and go to state 37
    RUSSIAN_RUBLE_SYMBOL      shift, and go to state 38
    AUSTRALIAN_DOLLAR_SYMBOL  shift, and go to state 39
    CANADIAN_DOLLAR_SYMBOL    shift, and go to state 40
    BRASILIAN_REAL_SYMBOL     shift, and go to state 41
    ROMANIAN_LEU_SYMBOL       shift, and go to state 42
    EURO_SYMBOL               shift, and go to state 43
    SWISS_FRANC_SYMBOL        shift, and go to state 44
    DANISH_KRONE_SYMBOL       shift, and go to state 45
    NORWEGIAN_KRONE_SYMBOL    shift, and go to state 46
    BULGARIAN_LEV_SYMBOL      shift, and go to state 47
    VIETNAMESE_DONG_SYMBOL    shift, and go to state 48
    CZECH_KORUNA_SYMBOL       shift, and go to state 49
    POLISH_ZLOTY_SYMBOL       shift, and go to state 50
    SWEDISH_KRONA_SYMBOL      shift, and go to state 51
    CROATIAN_KUNA_SYMBOL      shift, and go to state 52
    SERBIAN_DINAR_SYMBOL      shift, and go to state 53
    Quote                     shift, and go to state 54
    DQuote                    shift, and go to state 55
    NQuote                    shift, and go to state 56
    BQuote                    shift, and go to state 57
    XQuote                    shift, and go to state 58

    constant                 go to state 94
    ansi_string              go to state 69
    nchar_string             go to state 70
    dq_string                go to state 71
    sql2_date                go to state 72
    sql2_time                go to state 73
    sql2_timestamp           go to state 74
    utime                    go to state 75
    sql2_datetime            go to state 76
    bit_string               go to state 77
    object_reference         go to state 78
    set_constant             go to state 79
    set_elements             go to state 95
    system_object_reference  go to state 80
    ref_type                 go to state 81
    monetary                 go to state 82


state 19

   56 constant: REAL_LIT .

    $default  reduce using rule 56 (constant)


state 20

   55 constant: INT_LIT .

    $default  reduce using rule 55 (constant)


state 21

   36 object_id: OID_ .

    $default  reduce using rule 36 (object_id)


state 22

   49 constant: TIME_LIT4 .

    $default  reduce using rule 49 (constant)


state 23

   50 constant: TIME_LIT42 .

    $default  reduce using rule 50 (constant)


state 24

   51 constant: TIME_LIT3 .

    $default  reduce using rule 51 (constant)


state 25

   52 constant: TIME_LIT31 .

    $default  reduce using rule 52 (constant)


state 26

   53 constant: TIME_LIT2 .

    $default  reduce using rule 53 (constant)


state 27

   54 constant: TIME_LIT1 .

    $default  reduce using rule 54 (constant)


state 28

   57 constant: DATE_LIT2 .

    $default  reduce using rule 57 (constant)


state 29

   90 monetary: YEN_SYMBOL . REAL_LIT

    REAL_LIT  shift, and go to state 96


state 30

   91 monetary: WON_SYMBOL . REAL_LIT

    REAL_LIT  shift, and go to state 97


state 31

   93 monetary: BACKSLASH . REAL_LIT

    REAL_LIT  shift, and go to state 98


state 32

   89 monetary: DOLLAR_SYMBOL . REAL_LIT

    REAL_LIT  shift, and go to state 99


state 33

   92 monetary: TURKISH_LIRA_CURRENCY . REAL_LIT

    REAL_LIT  shift, and go to state 100


state 34

   94 monetary: BRITISH_POUND_SYMBOL . REAL_LIT

    REAL_LIT  shift, and go to state 101


state 35

   95 monetary: CAMBODIAN_RIEL_SYMBOL . REAL_LIT

    REAL_LIT  shift, and go to state 102


state 36

   96 monetary: CHINESE_RENMINBI_SYMBOL . REAL_LIT

    REAL_LIT  shift, and go to state 103


state 37

   97 monetary: INDIAN_RUPEE_SYMBOL . REAL_LIT

    REAL_LIT  shift, and go to state 104


state 38

   98 monetary: RUSSIAN_RUBLE_SYMBOL . REAL_LIT

    REAL_LIT  shift, and go to state 105


state 39

   99 monetary: AUSTRALIAN_DOLLAR_SYMBOL . REAL_LIT

    REAL_LIT  shift, and go to state 106


state 40

  100 monetary: CANADIAN_DOLLAR_SYMBOL . REAL_LIT

    REAL_LIT  shift, and go to state 107


state 41

  101 monetary: BRASILIAN_REAL_SYMBOL . REAL_LIT

    REAL_LIT  shift, and go to state 108


state 42

  102 monetary: ROMANIAN_LEU_SYMBOL . REAL_LIT

    REAL_LIT  shift, and go to state 109


state 43

  103 monetary: EURO_SYMBOL . REAL_LIT

    REAL_LIT  shift, and go to state 110


state 44

  104 monetary: SWISS_FRANC_SYMBOL . REAL_LIT

    REAL_LIT  shift, and go to state 111


state 45

  105 monetary: DANISH_KRONE_SYMBOL . REAL_LIT

    REAL_LIT  shift, and go to state 112


state 46

  106 monetary: NORWEGIAN_KRONE_SYMBOL . REAL_LIT

    REAL_LIT  shift, and go to state 113


state 47

  107 monetary: BULGARIAN_LEV_SYMBOL . REAL_LIT

    REAL_LIT  shift, and go to state 114


state 48

  108 monetary: VIETNAMESE_DONG_SYMBOL . REAL_LIT

    REAL_LIT  shift, and go to state 115


state 49

  109 monetary: CZECH_KORUNA_SYMBOL . REAL_LIT

    REAL_LIT  shift, and go to state 116


state 50

  110 monetary: POLISH_ZLOTY_SYMBOL . REAL_LIT

    REAL_LIT  shift, and go to state 117


state 51

  111 monetary: SWEDISH_KRONA_SYMBOL . REAL_LIT

    REAL_LIT  shift, and go to state 118


state 52

  112 monetary: CROATIAN_KUNA_SYMBOL . REAL_LIT

    REAL_LIT  shift, and go to state 119


state 53

  113 monetary: SERBIAN_DINAR_SYMBOL . REAL_LIT

    REAL_LIT  shift, and go to state 120


state 54

   62 ansi_string: Quote . SQS_String_Body

    SQS_String_Body  shift, and go to state 121


state 55

   64 dq_string: DQuote . DQS_String_Body

    DQS_String_Body  shift, and go to state 122


state 56

   63 nchar_string: NQuote . SQS_String_Body

    SQS_String_Body  shift, and go to state 123


state 57

   70 bit_string: BQuote . SQS_String_Body

    SQS_String_Body  shift, and go to state 124


state 58

   71 bit_string: XQuote . SQS_String_Body

    SQS_String_Body  shift, and go to state 125


state 59

    2 loader_start: @1 loader_lines .  [$end]
    4 loader_lines: loader_lines . line
    5 line: . one_line NL
    6     | . NL
    7 one_line: . command_line
    8         | . instance_line
    9 command_line: . class_command
   10             | . id_command
   11 id_command: . CMD_ID IDENTIFIER INT_LIT
   12 class_command: . CMD_CLASS IDENTIFIER class_commamd_spec
   33 instance_line: . object_id
   34              | . object_id constant_list
   35              | . constant_list
   36 object_id: . OID_
   37 constant_list: . constant
   38              | . constant_list constant
   39 constant: . ansi_string
   40         | . dq_string
   41         | . nchar_string
   42         | . bit_string
   43         | . sql2_date
   44         | . sql2_time
   45         | . sql2_timestamp
   46         | . utime
   47         | . sql2_datetime
   48         | . NULL_
   49         | . TIME_LIT4
   50         | . TIME_LIT42
   51         | . TIME_LIT3
   52         | . TIME_LIT31
   53         | . TIME_LIT2
   54         | . TIME_LIT1
   55         | . INT_LIT
   56         | . REAL_LIT
   57         | . DATE_LIT2
   58         | . monetary
   59         | . object_reference
   60         | . set_constant
   61         | . system_object_reference
   62 ansi_string: . Quote SQS_String_Body
   63 nchar_string: . NQuote SQS_String_Body
   64 dq_string: . DQuote DQS_String_Body
   65 sql2_date: . DATE_ Quote SQS_String_Body
   66 sql2_time: . TIME Quote SQS_String_Body
   67 sql2_timestamp: . TIMESTAMP Quote SQS_String_Body
   68 utime: . UTIME Quote SQS_String_Body
   69 sql2_datetime: . DATETIME Quote SQS_String_Body
   70 bit_string: . BQuote SQS_String_Body
   71           | . XQuote SQS_String_Body
   72 object_reference: . OBJECT_REFERENCE class_identifier
   73                 | . OBJECT_REFERENCE class_identifier instance_number
   77 set_constant: . SET_START_BRACE SET_END_BRACE
   78             | . SET_START_BRACE set_elements SET_END_BRACE
   84 system_object_reference: . ref_type Quote SQS_String_Body
   85 ref_type: . REF_ELO_INT
   86         | . REF_ELO_EXT
   87         | . REF_USER
   88         | . REF_CLASS
   89 monetary: . DOLLAR_SYMBOL REAL_LIT
   90         | . YEN_SYMBOL REAL_LIT
   91         | . WON_SYMBOL REAL_LIT
   92         | . TURKISH_LIRA_CURRENCY REAL_LIT
   93         | . BACKSLASH REAL_LIT
   94         | . BRITISH_POUND_SYMBOL REAL_LIT
   95         | . CAMBODIAN_RIEL_SYMBOL REAL_LIT
   96         | . CHINESE_RENMINBI_SYMBOL REAL_LIT
   97         | . INDIAN_RUPEE_SYMBOL REAL_LIT
   98         | . RUSSIAN_RUBLE_SYMBOL REAL_LIT
   99         | . AUSTRALIAN_DOLLAR_SYMBOL REAL_LIT
  100         | . CANADIAN_DOLLAR_SYMBOL REAL_LIT
  101         | . BRASILIAN_REAL_SYMBOL REAL_LIT
  102         | . ROMANIAN_LEU_SYMBOL REAL_LIT
  103         | . EURO_SYMBOL REAL_LIT
  104         | . SWISS_FRANC_SYMBOL REAL_LIT
  105         | . DANISH_KRONE_SYMBOL REAL_LIT
  106         | . NORWEGIAN_KRONE_SYMBOL REAL_LIT
  107         | . BULGARIAN_LEV_SYMBOL REAL_LIT
  108         | . VIETNAMESE_DONG_SYMBOL REAL_LIT
  109         | . CZECH_KORUNA_SYMBOL REAL_LIT
  110         | . POLISH_ZLOTY_SYMBOL REAL_LIT
  111         | . SWEDISH_KRONA_SYMBOL REAL_LIT
  112         | . CROATIAN_KUNA_SYMBOL REAL_LIT
  113         | . SERBIAN_DINAR_SYMBOL REAL_LIT

    NL                        shift, and go to state 4
    NULL_                     shift, and go to state 5
    DATE_                     shift, and go to state 6
    TIME                      shift, and go to state 7
    UTIME                     shift, and go to state 8
    TIMESTAMP                 shift, and go to state 9
    DATETIME                  shift, and go to state 10
    CMD_ID                    shift, and go to state 11
    CMD_CLASS                 shift, and go to state 12
    REF_ELO_INT               shift, and go to state 13
    REF_ELO_EXT               shift, and go to state 14
    REF_USER                  shift, and go to state 15
    REF_CLASS                 shift, and go to state 16
    OBJECT_REFERENCE          shift, and go to state 17
    SET_START_BRACE           shift, and go to state 18
    REAL_LIT                  shift, and go to state 19
    INT_LIT                   shift, and go to state 20
    OID_                      shift, and go to state 21
    TIME_LIT4                 shift, and go to state 22
    TIME_LIT42                shift, and go to state 23
    TIME_LIT3                 shift, and go to state 24
    TIME_LIT31                shift, and go to state 25
    TIME_LIT2                 shift, and go to state 26
    TIME_LIT1                 shift, and go to state 27
    DATE_LIT2                 shift, and go to state 28
    YEN_SYMBOL                shift, and go to state 29
    WON_SYMBOL                shift, and go to state 30
    BACKSLASH                 shift, and go to state 31
    DOLLAR_SYMBOL             shift, and go to state 32
    TURKISH_LIRA_CURRENCY     shift, and go to state 33
    BRITISH_POUND_SYMBOL      shift, and go to state 34
    CAMBODIAN_RIEL_SYMBOL     shift, and go to state 35
    CHINESE_RENMINBI_SYMBOL   shift, and go to state 36
    INDIAN_RUPEE_SYMBOL       shift, and go to state 37
    RUSSIAN_RUBLE_SYMBOL      shift, and go to state 38
    AUSTRALIAN_DOLLAR_SYMBOL  shift, and go to state 39
    CANADIAN_DOLLAR_SYMBOL    shift, and go to state 40
    BRASILIAN_REAL_SYMBOL     shift, and go to state 41
    ROMANIAN_LEU_SYMBOL       shift, and go to state 42
    EURO_SYMBOL               shift, and go to state 43
    SWISS_FRANC_SYMBOL        shift, and go to state 44
    DANISH_KRONE_SYMBOL       shift, and go to state 45
    NORWEGIAN_KRONE_SYMBOL    shift, and go to state 46
    BULGARIAN_LEV_SYMBOL      shift, and go to state 47
    VIETNAMESE_DONG_SYMBOL    shift, and go to state 48
    CZECH_KORUNA_SYMBOL       shift, and go to state 49
    POLISH_ZLOTY_SYMBOL       shift, and go to state 50
    SWEDISH_KRONA_SYMBOL      shift, and go to state 51
    CROATIAN_KUNA_SYMBOL      shift, and go to state 52
    SERBIAN_DINAR_SYMBOL      shift, and go to state 53
    Quote                     shift, and go to state 54
    DQuote                    shift, and go to state 55
    NQuote                    shift, and go to state 56
    BQuote                    shift, and go to state 57
    XQuote                    shift, and go to state 58

    $default  reduce using rule 2 (loader_start)

    line                     go to state 126
    one_line                 go to state 61
    command_line             go to state 62
    id_command               go to state 63
    class_command            go to state 64
    instance_line            go to state 65
    object_id                go to state 66
    constant_list            go to state 67
    constant                 go to state 68
    ansi_string              go to state 69
    nchar_string             go to state 70
    dq_string                go to state 71
    sql2_date                go to state 72
    sql2_time                go to state 73
    sql2_timestamp           go to state 74
    utime                    go to state 75
    sql2_datetime            go to state 76
    bit_string               go to state 77
    object_reference         go to state 78
    set_constant             go to state 79
    system_object_reference  go to state 80
    ref_type                 go to state 81
    monetary                 go to state 82


state 60

    3 loader_lines: line .

    $default  reduce using rule 3 (loader_lines)


state 61

    5 line: one_line . NL

    NL  shift, and go to state 127


state 62

    7 one_line: command_line .

    $default  reduce using rule 7 (one_line)


state 63

   10 command_line: id_command .

    $default  reduce using rule 10 (command_line)


state 64

    9 command_line: class_command .

    $default  reduce using rule 9 (command_line)


state 65

    8 one_line: instance_line .

    $default  reduce using rule 8 (one_line)


state 66

   33 instance_line: object_id .  [NL]
   34              | object_id . constant_list
   37 constant_list: . constant
   38              | . constant_list constant
   39 constant: . ansi_string
   40         | . dq_string
   41         | . nchar_string
   42         | . bit_string
   43         | . sql2_date
   44         | . sql2_time
   45         | . sql2_timestamp
   46         | . utime
   47         | . sql2_datetime
   48         | . NULL_
   49         | . TIME_LIT4
   50         | . TIME_LIT42
   51         | . TIME_LIT3
   52         | . TIME_LIT31
   53         | . TIME_LIT2
   54         | . TIME_LIT1
   55         | . INT_LIT
   56         | . REAL_LIT
   57         | . DATE_LIT2
   58         | . monetary
   59         | . object_reference
   60         | . set_constant
   61         | . system_object_reference
   62 ansi_string: . Quote SQS_String_Body
   63 nchar_string: . NQuote SQS_String_Body
   64 dq_string: . DQuote DQS_String_Body
   65 sql2_date: . DATE_ Quote SQS_String_Body
   66 sql2_time: . TIME Quote SQS_String_Body
   67 sql2_timestamp: . TIMESTAMP Quote SQS_String_Body
   68 utime: . UTIME Quote SQS_String_Body
   69 sql2_datetime: . DATETIME Quote SQS_String_Body
   70 bit_string: . BQuote SQS_String_Body
   71           | . XQuote SQS_String_Body
   72 object_reference: . OBJECT_REFERENCE class_identifier
   73                 | . OBJECT_REFERENCE class_identifier instance_number
   77 set_constant: . SET_START_BRACE SET_END_BRACE
   78             | . SET_START_BRACE set_elements SET_END_BRACE
   84 system_object_reference: . ref_type Quote SQS_String_Body
   85 ref_type: . REF_ELO_INT
   86         | . REF_ELO_EXT
   87         | . REF_USER
   88         | . REF_CLASS
   89 monetary: . DOLLAR_SYMBOL REAL_LIT
   90         | . YEN_SYMBOL REAL_LIT
   91         | . WON_SYMBOL REAL_LIT
   92         | . TURKISH_LIRA_CURRENCY REAL_LIT
   93         | . BACKSLASH REAL_LIT
   94         | . BRITISH_POUND_SYMBOL REAL_LIT
   95         | . CAMBODIAN_RIEL_SYMBOL REAL_LIT
   96         | . CHINESE_RENMINBI_SYMBOL REAL_LIT
   97         | . INDIAN_RUPEE_SYMBOL REAL_LIT
   98         | . RUSSIAN_RUBLE_SYMBOL REAL_LIT
   99         | . AUSTRALIAN_DOLLAR_SYMBOL REAL_LIT
  100         | . CANADIAN_DOLLAR_SYMBOL REAL_LIT
  101         | . BRASILIAN_REAL_SYMBOL REAL_LIT
  102         | . ROMANIAN_LEU_SYMBOL REAL_LIT
  103         | . EURO_SYMBOL REAL_LIT
  104         | . SWISS_FRANC_SYMBOL REAL_LIT
  105         | . DANISH_KRONE_SYMBOL REAL_LIT
  106         | . NORWEGIAN_KRONE_SYMBOL REAL_LIT
  107         | . BULGARIAN_LEV_SYMBOL REAL_LIT
  108         | . VIETNAMESE_DONG_SYMBOL REAL_LIT
  109         | . CZECH_KORUNA_SYMBOL REAL_LIT
  110         | . POLISH_ZLOTY_SYMBOL REAL_LIT
  111         | . SWEDISH_KRONA_SYMBOL REAL_LIT
  112         | . CROATIAN_KUNA_SYMBOL REAL_LIT
  113         | . SERBIAN_DINAR_SYMBOL REAL_LIT

    NULL_                     shift, and go to state 5
    DATE_                     shift, and go to state 6
    TIME                      shift, and go to state 7
    UTIME                     shift, and go to state 8
    TIMESTAMP                 shift, and go to state 9
    DATETIME                  shift, and go to state 10
    REF_ELO_INT               shift, and go to state 13
    REF_ELO_EXT               shift, and go to state 14
    REF_USER                  shift, and go to state 15
    REF_CLASS                 shift, and go to state 16
    OBJECT_REFERENCE          shift, and go to state 17
    SET_START_BRACE           shift, and go to state 18
    REAL_LIT                  shift, and go to state 19
    INT_LIT                   shift, and go to state 20
    TIME_LIT4                 shift, and go to state 22
    TIME_LIT42                shift, and go to state 23
    TIME_LIT3                 shift, and go to state 24
    TIME_LIT31                shift, and go to state 25
    TIME_LIT2                 shift, and go to state 26
    TIME_LIT1                 shift, and go to state 27
    DATE_LIT2                 shift, and go to state 28
    YEN_SYMBOL                shift, and go to state 29
    WON_SYMBOL                shift, and go to state 30
    BACKSLASH                 shift, and go to state 31
    DOLLAR_SYMBOL             shift, and go to state 32
    TURKISH_LIRA_CURRENCY     shift, and go to state 33
    BRITISH_POUND_SYMBOL      shift, and go to state 34
    CAMBODIAN_RIEL_SYMBOL     shift, and go to state 35
    CHINESE_RENMINBI_SYMBOL   shift, and go to state 36
    INDIAN_RUPEE_SYMBOL       shift, and go to state 37
    RUSSIAN_RUBLE_SYMBOL      shift, and go to state 38
    AUSTRALIAN_DOLLAR_SYMBOL  shift, and go to state 39
    CANADIAN_DOLLAR_SYMBOL    shift, and go to state 40
    BRASILIAN_REAL_SYMBOL     shift, and go to state 41
    ROMANIAN_LEU_SYMBOL       shift, and go to state 42
    EURO_SYMBOL               shift, and go to state 43
    SWISS_FRANC_SYMBOL        shift, and go to state 44
    DANISH_KRONE_SYMBOL       shift, and go to state 45
    NORWEGIAN_KRONE_SYMBOL    shift, and go to state 46
    BULGARIAN_LEV_SYMBOL      shift, and go to state 47
    VIETNAMESE_DONG_SYMBOL    shift, and go to state 48
    CZECH_KORUNA_SYMBOL       shift, and go to state 49
    POLISH_ZLOTY_SYMBOL       shift, and go to state 50
    SWEDISH_KRONA_SYMBOL      shift, and go to state 51
    CROATIAN_KUNA_SYMBOL      shift, and go to state 52
    SERBIAN_DINAR_SYMBOL      shift, and go to state 53
    Quote                     shift, and go to state 54
    DQuote                    shift, and go to state 55
    NQuote                    shift, and go to state 56
    BQuote                    shift, and go to state 57
    XQuote                    shift, and go to state 58

    $default  reduce using rule 33 (instance_line)

    constant_list            go to state 128
    constant                 go to state 68
    ansi_string              go to state 69
    nchar_string             go to state 70
    dq_string                go to state 71
    sql2_date                go to state 72
    sql2_time                go to state 73
    sql2_timestamp           go to state 74
    utime                    go to state 75
    sql2_datetime            go to state 76
    bit_string               go to state 77
    object_reference         go to state 78
    set_constant             go to state 79
    system_object_reference  go to state 80
    ref_type                 go to state 81
    monetary                 go to state 82


state 67

   35 instance_line: constant_list .  [NL]
   38 constant_list: constant_list . constant
   39 constant: . ansi_string
   40         | . dq_string
   41         | . nchar_string
   42         | . bit_string
   43         | . sql2_date
   44         | . sql2_time
   45         | . sql2_timestamp
   46         | . utime
   47         | . sql2_datetime
   48         | . NULL_
   49         | . TIME_LIT4
   50         | . TIME_LIT42
   51         | . TIME_LIT3
   52         | . TIME_LIT31
   53         | . TIME_LIT2
   54         | . TIME_LIT1
   55         | . INT_LIT
   56         | . REAL_LIT
   57         | . DATE_LIT2
   58         | . monetary
   59         | . object_reference
   60         | . set_constant
   61         | . system_object_reference
   62 ansi_string: . Quote SQS_String_Body
   63 nchar_string: . NQuote SQS_String_Body
   64 dq_string: . DQuote DQS_String_Body
   65 sql2_date: . DATE_ Quote SQS_String_Body
   66 sql2_time: . TIME Quote SQS_String_Body
   67 sql2_timestamp: . TIMESTAMP Quote SQS_String_Body
   68 utime: . UTIME Quote SQS_String_Body
   69 sql2_datetime: . DATETIME Quote SQS_String_Body
   70 bit_string: . BQuote SQS_String_Body
   71           | . XQuote SQS_String_Body
   72 object_reference: . OBJECT_REFERENCE class_identifier
   73                 | . OBJECT_REFERENCE class_identifier instance_number
   77 set_constant: . SET_START_BRACE SET_END_BRACE
   78             | . SET_START_BRACE set_elements SET_END_BRACE
   84 system_object_reference: . ref_type Quote SQS_String_Body
   85 ref_type: . REF_ELO_INT
   86         | . REF_ELO_EXT
   87         | . REF_USER
   88         | . REF_CLASS
   89 monetary: . DOLLAR_SYMBOL REAL_LIT
   90         | . YEN_SYMBOL REAL_LIT
   91         | . WON_SYMBOL REAL_LIT
   92         | . TURKISH_LIRA_CURRENCY REAL_LIT
   93         | . BACKSLASH REAL_LIT
   94         | . BRITISH_POUND_SYMBOL REAL_LIT
   95         | . CAMBODIAN_RIEL_SYMBOL REAL_LIT
   96         | . CHINESE_RENMINBI_SYMBOL REAL_LIT
   97         | . INDIAN_RUPEE_SYMBOL REAL_LIT
   98         | . RUSSIAN_RUBLE_SYMBOL REAL_LIT
   99         | . AUSTRALIAN_DOLLAR_SYMBOL REAL_LIT
  100         | . CANADIAN_DOLLAR_SYMBOL REAL_LIT
  101         | . BRASILIAN_REAL_SYMBOL REAL_LIT
  102         | . ROMANIAN_LEU_SYMBOL REAL_LIT
  103         | . EURO_SYMBOL REAL_LIT
  104         | . SWISS_FRANC_SYMBOL REAL_LIT
  105         | . DANISH_KRONE_SYMBOL REAL_LIT
  106         | . NORWEGIAN_KRONE_SYMBOL REAL_LIT
  107         | . BULGARIAN_LEV_SYMBOL REAL_LIT
  108         | . VIETNAMESE_DONG_SYMBOL REAL_LIT
  109         | . CZECH_KORUNA_SYMBOL REAL_LIT
  110         | . POLISH_ZLOTY_SYMBOL REAL_LIT
  111         | . SWEDISH_KRONA_SYMBOL REAL_LIT
  112         | . CROATIAN_KUNA_SYMBOL REAL_LIT
  113         | . SERBIAN_DINAR_SYMBOL REAL_LIT

    NULL_                     shift, and go to state 5
    DATE_                     shift, and go to state 6
    TIME                      shift, and go to state 7
    UTIME                     shift, and go to state 8
    TIMESTAMP                 shift, and go to state 9
    DATETIME                  shift, and go to state 10
    REF_ELO_INT               shift, and go to state 13
    REF_ELO_EXT               shift, and go to state 14
    REF_USER                  shift, and go to state 15
    REF_CLASS                 shift, and go to state 16
    OBJECT_REFERENCE          shift, and go to state 17
    SET_START_BRACE           shift, and go to state 18
    REAL_LIT                  shift, and go to state 19
    INT_LIT                   shift, and go to state 20
    TIME_LIT4                 shift, and go to state 22
    TIME_LIT42                shift, and go to state 23
    TIME_LIT3                 shift, and go to state 24
    TIME_LIT31                shift, and go to state 25
    TIME_LIT2                 shift, and go to state 26
    TIME_LIT1                 shift, and go to state 27
    DATE_LIT2                 shift, and go to state 28
    YEN_SYMBOL                shift, and go to state 29
    WON_SYMBOL                shift, and go to state 30
    BACKSLASH                 shift, and go to state 31
    DOLLAR_SYMBOL             shift, and go to state 32
    TURKISH_LIRA_CURRENCY     shift, and go to state 33
    BRITISH_POUND_SYMBOL      shift, and go to state 34
    CAMBODIAN_RIEL_SYMBOL     shift, and go to state 35
    CHINESE_RENMINBI_SYMBOL   shift, and go to state 36
    INDIAN_RUPEE_SYMBOL       shift, and go to state 37
    RUSSIAN_RUBLE_SYMBOL      shift, and go to state 38
    AUSTRALIAN_DOLLAR_SYMBOL  shift, and go to state 39
    CANADIAN_DOLLAR_SYMBOL    shift, and go to state 40
    BRASILIAN_REAL_SYMBOL     shift, and go to state 41
    ROMANIAN_LEU_SYMBOL       shift, and go to state 42
    EURO_SYMBOL               shift, and go to state 43
    SWISS_FRANC_SYMBOL        shift, and go to state 44
    DANISH_KRONE_SYMBOL       shift, and go to state 45
    NORWEGIAN_KRONE_SYMBOL    shift, and go to state 46
    BULGARIAN_LEV_SYMBOL      shift, and go to state 47
    VIETNAMESE_DONG_SYMBOL    shift, and go to state 48
    CZECH_KORUNA_SYMBOL       shift, and go to state 49
    POLISH_ZLOTY_SYMBOL       shift, and go to state 50
    SWEDISH_KRONA_SYMBOL      shift, and go to state 51
    CROATIAN_KUNA_SYMBOL      shift, and go to state 52
    SERBIAN_DINAR_SYMBOL      shift, and go to state 53
    Quote                     shift, and go to state 54
    DQuote                    shift, and go to state 55
    NQuote                    shift, and go to state 56
    BQuote                    shift, and go to state 57
    XQuote                    shift, and go to state 58

    $default  reduce using rule 35 (instance_line)

    constant                 go to state 129
    ansi_string              go to state 69
    nchar_string             go to state 70
    dq_string                go to state 71
    sql2_date                go to state 72
    sql2_time                go to state 73
    sql2_timestamp           go to state 74
    utime                    go to state 75
    sql2_datetime            go to state 76
    bit_string               go to state 77
    object_reference         go to state 78
    set_constant             go to state 79
    system_object_reference  go to state 80
    ref_type                 go to state 81
    monetary                 go to state 82


state 68

   37 constant_list: constant .

    $default  reduce using rule 37 (constant_list)


state 69

   39 constant: ansi_string .

    $default  reduce using rule 39 (constant)


state 70

   41 constant: nchar_string .

    $default  reduce using rule 41 (constant)


state 71

   40 constant: dq_string .

    $default  reduce using rule 40 (constant)


state 72

   43 constant: sql2_date .

    $default  reduce using rule 43 (constant)


state 73

   44 constant: sql2_time .

    $default  reduce using rule 44 (constant)


state 74

   45 constant: sql2_timestamp .

    $default  reduce using rule 45 (constant)


state 75

   46 constant: utime .

    $default  reduce using rule 46 (constant)


state 76

   47 constant: sql2_datetime .

    $default  reduce using rule 47 (constant)


state 77

   42 constant: bit_string .

    $default  reduce using rule 42 (constant)


state 78

   59 constant: object_reference .

    $default  reduce using rule 59 (constant)


state 79

   60 constant: set_constant .

    $default  reduce using rule 60 (constant)


state 80

   61 constant: system_object_reference .

    $default  reduce using rule 61 (constant)


state 81

   84 system_object_reference: ref_type . Quote SQS_String_Body

    Quote  shift, and go to state 130


state 82

   58 constant: monetary .

    $default  reduce using rule 58 (constant)


state 83

   65 sql2_date: DATE_ Quote . SQS_String_Body

    SQS_String_Body  shift, and go to state 131


state 84

   66 sql2_time: TIME Quote . SQS_String_Body

    SQS_String_Body  shift, and go to state 132


state 85

   68 utime: UTIME Quote . SQS_String_Body

    SQS_String_Body  shift, and go to state 133


state 86

   67 sql2_timestamp: TIMESTAMP Quote . SQS_String_Body

    SQS_String_Body  shift, and go to state 134


state 87

   69 sql2_datetime: DATETIME Quote . SQS_String_Body

    SQS_String_Body  shift, and go to state 135


state 88

   11 id_command: CMD_ID IDENTIFIER . INT_LIT

    INT_LIT  shift, and go to state 136


state 89

   12 class_command: CMD_CLASS IDENTIFIER . class_commamd_spec
   13 class_commamd_spec: . attribute_list
   14                   | . attribute_list constructor_spec
   15                   | . attribute_list_qualifier attribute_list
   16                   | . attribute_list_qualifier attribute_list constructor_spec
   17 attribute_list_qualifier: . CLASS
   18                         | . SHARED
   19                         | . DEFAULT
   20 attribute_list: . START_PAREN END_PAREN
   21               | . START_PAREN attribute_names END_PAREN

    CLASS        shift, and go to state 137
    SHARED       shift, and go to state 138
    DEFAULT      shift, and go to state 139
    START_PAREN  shift, and go to state 140

    class_commamd_spec        go to state 141
    attribute_list_qualifier  go to state 142
    attribute_list            go to state 143


state 90

   74 class_identifier: INT_LIT .

    $default  reduce using rule 74 (class_identifier)


state 91

   75 class_identifier: IDENTIFIER .

    $default  reduce using rule 75 (class_identifier)


state 92

   72 object_reference: OBJECT_REFERENCE class_identifier .  [NL, NULL_, DATE_, TIME, UTIME, TIMESTAMP, DATETIME, REF_ELO_INT, REF_ELO_EXT, REF_USER, REF_CLASS, OBJECT_REFERENCE, SET_START_BRACE, SET_END_BRACE, REAL_LIT, INT_LIT, TIME_LIT4, TIME_LIT42, TIME_LIT3, TIME_LIT31, TIME_LIT2, TIME_LIT1, DATE_LIT2, YEN_SYMBOL, WON_SYMBOL, BACKSLASH, DOLLAR_SYMBOL, TURKISH_LIRA_CURRENCY, BRITISH_POUND_SYMBOL, CAMBODIAN_RIEL_SYMBOL, CHINESE_RENMINBI_SYMBOL, INDIAN_RUPEE_SYMBOL, RUSSIAN_RUBLE_SYMBOL, AUSTRALIAN_DOLLAR_SYMBOL, CANADIAN_DOLLAR_SYMBOL, BRASILIAN_REAL_SYMBOL, ROMANIAN_LEU_SYMBOL, EURO_SYMBOL, SWISS_FRANC_SYMBOL, DANISH_KRONE_SYMBOL, NORWEGIAN_KRONE_SYMBOL, BULGARIAN_LEV_SYMBOL, VIETNAMESE_DONG_SYMBOL, CZECH_KORUNA_SYMBOL, POLISH_ZLOTY_SYMBOL, SWEDISH_KRONA_SYMBOL, CROATIAN_KUNA_SYMBOL, SERBIAN_DINAR_SYMBOL, Quote, DQuote, NQuote, BQuote, XQuote, COMMA]
   73                 | OBJECT_REFERENCE class_identifier . instance_number
   76 instance_number: . OID_DELIMETER INT_LIT

    OID_DELIMETER  shift, and go to state 144

    $default  reduce using rule 72 (object_reference)

    instance_number  go to state 145


state 93

   77 set_constant: SET_START_BRACE SET_END_BRACE .

    $default  reduce using rule 77 (set_constant)


state 94

   79 set_elements: constant .

    $default  reduce using rule 79 (set_elements)


state 95

   39 constant: . ansi_string
   40         | . dq_string
   41         | . nchar_string
   42         | . bit_string
   43         | . sql2_date
   44         | . sql2_time
   45         | . sql2_timestamp
   46         | . utime
   47         | . sql2_datetime
   48         | . NULL_
   49         | . TIME_LIT4
   50         | . TIME_LIT42
   51         | . TIME_LIT3
   52         | . TIME_LIT31
   53         | . TIME_LIT2
   54         | . TIME_LIT1
   55         | . INT_LIT
   56         | . REAL_LIT
   57         | . DATE_LIT2
   58         | . monetary
   59         | . object_reference
   60         | . set_constant
   61         | . system_object_reference
   62 ansi_string: . Quote SQS_String_Body
   63 nchar_string: . NQuote SQS_String_Body
   64 dq_string: . DQuote DQS_String_Body
   65 sql2_date: . DATE_ Quote SQS_String_Body
   66 sql2_time: . TIME Quote SQS_String_Body
   67 sql2_timestamp: . TIMESTAMP Quote SQS_String_Body
   68 utime: . UTIME Quote SQS_String_Body
   69 sql2_datetime: . DATETIME Quote SQS_String_Body
   70 bit_string: . BQuote SQS_String_Body
   71           | . XQuote SQS_String_Body
   72 object_reference: . OBJECT_REFERENCE class_identifier
   73                 | . OBJECT_REFERENCE class_identifier instance_number
   77 set_constant: . SET_START_BRACE SET_END_BRACE
   78             | . SET_START_BRACE set_elements SET_END_BRACE
   78             | SET_START_BRACE set_elements . SET_END_BRACE
   80 set_elements: set_elements . constant
   81             | set_elements . COMMA constant
   82             | set_elements . NL constant
   83             | set_elements . COMMA NL constant
   84 system_object_reference: . ref_type Quote SQS_String_Body
   85 ref_type: . REF_ELO_INT
   86         | . REF_ELO_EXT
   87         | . REF_USER
   88         | . REF_CLASS
   89 monetary: . DOLLAR_SYMBOL REAL_LIT
   90         | . YEN_SYMBOL REAL_LIT
   91         | . WON_SYMBOL REAL_LIT
   92         | . TURKISH_LIRA_CURRENCY REAL_LIT
   93         | . BACKSLASH REAL_LIT
   94         | . BRITISH_POUND_SYMBOL REAL_LIT
   95         | . CAMBODIAN_RIEL_SYMBOL REAL_LIT
   96         | . CHINESE_RENMINBI_SYMBOL REAL_LIT
   97         | . INDIAN_RUPEE_SYMBOL REAL_LIT
   98         | . RUSSIAN_RUBLE_SYMBOL REAL_LIT
   99         | . AUSTRALIAN_DOLLAR_SYMBOL REAL_LIT
  100         | . CANADIAN_DOLLAR_SYMBOL REAL_LIT
  101         | . BRASILIAN_REAL_SYMBOL REAL_LIT
  102         | . ROMANIAN_LEU_SYMBOL REAL_LIT
  103         | . EURO_SYMBOL REAL_LIT
  104         | . SWISS_FRANC_SYMBOL REAL_LIT
  105         | . DANISH_KRONE_SYMBOL REAL_LIT
  106         | . NORWEGIAN_KRONE_SYMBOL REAL_LIT
  107         | . BULGARIAN_LEV_SYMBOL REAL_LIT
  108         | . VIETNAMESE_DONG_SYMBOL REAL_LIT
  109         | . CZECH_KORUNA_SYMBOL REAL_LIT
  110         | . POLISH_ZLOTY_SYMBOL REAL_LIT
  111         | . SWEDISH_KRONA_SYMBOL REAL_LIT
  112         | . CROATIAN_KUNA_SYMBOL REAL_LIT
  113         | . SERBIAN_DINAR_SYMBOL REAL_LIT

    NL                        shift, and go to state 146
    NULL_                     shift, and go to state 5
    DATE_                     shift, and go to state 6
    TIME                      shift, and go to state 7
    UTIME                     shift, and go to state 8
    TIMESTAMP                 shift, and go to state 9
    DATETIME                  shift, and go to state 10
    REF_ELO_INT               shift, and go to state 13
    REF_ELO_EXT               shift, and go to state 14
    REF_USER                  shift, and go to state 15
    REF_CLASS                 shift, and go to state 16
    OBJECT_REFERENCE          shift, and go to state 17
    SET_START_BRACE           shift, and go to state 18
    SET_END_BRACE             shift, and go to state 147
    REAL_LIT                  shift, and go to state 19
    INT_LIT                   shift, and go to state 20
    TIME_LIT4                 shift, and go to state 22
    TIME_LIT42                shift, and go to state 23
    TIME_LIT3                 shift, and go to state 24
    TIME_LIT31                shift, and go to state 25
    TIME_LIT2                 shift, and go to state 26
    TIME_LIT1                 shift, and go to state 27
    DATE_LIT2                 shift, and go to state 28
    YEN_SYMBOL                shift, and go to state 29
    WON_SYMBOL                shift, and go to state 30
    BACKSLASH                 shift, and go to state 31
    DOLLAR_SYMBOL             shift, and go to state 32
    TURKISH_LIRA_CURRENCY     shift, and go to state 33
    BRITISH_POUND_SYMBOL      shift, and go to state 34
    CAMBODIAN_RIEL_SYMBOL     shift, and go to state 35
    CHINESE_RENMINBI_SYMBOL   shift, and go to state 36
    INDIAN_RUPEE_SYMBOL       shift, and go to state 37
    RUSSIAN_RUBLE_SYMBOL      shift, and go to state 38
    AUSTRALIAN_DOLLAR_SYMBOL  shift, and go to state 39
    CANADIAN_DOLLAR_SYMBOL    shift, and go to state 40
    BRASILIAN_REAL_SYMBOL     shift, and go to state 41
    ROMANIAN_LEU_SYMBOL       shift, and go to state 42
    EURO_SYMBOL               shift, and go to state 43
    SWISS_FRANC_SYMBOL        shift, and go to state 44
    DANISH_KRONE_SYMBOL       shift, and go to state 45
    NORWEGIAN_KRONE_SYMBOL    shift, and go to state 46
    BULGARIAN_LEV_SYMBOL      shift, and go to state 47
    VIETNAMESE_DONG_SYMBOL    shift, and go to state 48
    CZECH_KORUNA_SYMBOL       shift, and go to state 49
    POLISH_ZLOTY_SYMBOL       shift, and go to state 50
    SWEDISH_KRONA_SYMBOL      shift, and go to state 51
    CROATIAN_KUNA_SYMBOL      shift, and go to state 52
    SERBIAN_DINAR_SYMBOL      shift, and go to state 53
    Quote                     shift, and go to state 54
    DQuote                    shift, and go to state 55
    NQuote                    shift, and go to state 56
    BQuote                    shift, and go to state 57
    XQuote                    shift, and go to state 58
    COMMA                     shift, and go to state 148

    constant                 go to state 149
    ansi_string              go to state 69
    nchar_string             go to state 70
    dq_string                go to state 71
    sql2_date                go to state 72
    sql2_time                go to state 73
    sql2_timestamp           go to state 74
    utime                    go to state 75
    sql2_datetime            go to state 76
    bit_string               go to state 77
    object_reference         go to state 78
    set_constant             go to state 79
    system_object_reference  go to state 80
    ref_type                 go to state 81
    monetary                 go to state 82


state 96

   90 monetary: YEN_SYMBOL REAL_LIT .

    $default  reduce using rule 90 (monetary)


state 97

   91 monetary: WON_SYMBOL REAL_LIT .

    $default  reduce using rule 91 (monetary)


state 98

   93 monetary: BACKSLASH REAL_LIT .

    $default  reduce using rule 93 (monetary)


state 99

   89 monetary: DOLLAR_SYMBOL REAL_LIT .

    $default  reduce using rule 89 (monetary)


state 100

   92 monetary: TURKISH_LIRA_CURRENCY REAL_LIT .

    $default  reduce using rule 92 (monetary)


state 101

   94 monetary: BRITISH_POUND_SYMBOL REAL_LIT .

    $default  reduce using rule 94 (monetary)


state 102

   95 monetary: CAMBODIAN_RIEL_SYMBOL REAL_LIT .

    $default  reduce using rule 95 (monetary)


state 103

   96 monetary: CHINESE_RENMINBI_SYMBOL REAL_LIT .

    $default  reduce using rule 96 (monetary)


state 104

   97 monetary: INDIAN_RUPEE_SYMBOL REAL_LIT .

    $default  reduce using rule 97 (monetary)


state 105

   98 monetary: RUSSIAN_RUBLE_SYMBOL REAL_LIT .

    $default  reduce using rule 98 (monetary)


state 106

   99 monetary: AUSTRALIAN_DOLLAR_SYMBOL REAL_LIT .

    $default  reduce using rule 99 (monetary)


state 107

  100 monetary: CANADIAN_DOLLAR_SYMBOL REAL_LIT .

    $default  reduce using rule 100 (monetary)


state 108

  101 monetary: BRASILIAN_REAL_SYMBOL REAL_LIT .

    $default  reduce using rule 101 (monetary)


state 109

  102 monetary: ROMANIAN_LEU_SYMBOL REAL_LIT .

    $default  reduce using rule 102 (monetary)


state 110

  103 monetary: EURO_SYMBOL REAL_LIT .

    $default  reduce using rule 103 (monetary)


state 111

  104 monetary: SWISS_FRANC_SYMBOL REAL_LIT .

    $default  reduce using rule 104 (monetary)


state 112

  105 monetary: DANISH_KRONE_SYMBOL REAL_LIT .

    $default  reduce using rule 105 (monetary)


state 113

  106 monetary: NORWEGIAN_KRONE_SYMBOL REAL_LIT .

    $default  reduce using rule 106 (monetary)


state 114

  107 monetary: BULGARIAN_LEV_SYMBOL REAL_LIT .

    $default  reduce using rule 107 (monetary)


state 115

  108 monetary: VIETNAMESE_DONG_SYMBOL REAL_LIT .

    $default  reduce using rule 108 (monetary)


state 116

  109 monetary: CZECH_KORUNA_SYMBOL REAL_LIT .

    $default  reduce using rule 109 (monetary)


state 117

  110 monetary: POLISH_ZLOTY_SYMBOL REAL_LIT .

    $default  reduce using rule 110 (monetary)


state 118

  111 monetary: SWEDISH_KRONA_SYMBOL REAL_LIT .

    $default  reduce using rule 111 (monetary)


state 119

  112 monetary: CROATIAN_KUNA_SYMBOL REAL_LIT .

    $default  reduce using rule 112 (monetary)


state 120

  113 monetary: SERBIAN_DINAR_SYMBOL REAL_LIT .

    $default  reduce using rule 113 (monetary)


state 121

   62 ansi_string: Quote SQS_String_Body .

    $default  reduce using rule 62 (ansi_string)


state 122

   64 dq_string: DQuote DQS_String_Body .

    $default  reduce using rule 64 (dq_string)


state 123

   63 nchar_string: NQuote SQS_String_Body .

    $default  reduce using rule 63 (nchar_string)


state 124

   70 bit_string: BQuote SQS_String_Body .

    $default  reduce using rule 70 (bit_string)


state 125

   71 bit_string: XQuote SQS_String_Body .

    $default  reduce using rule 71 (bit_string)


state 126

    4 loader_lines: loader_lines line .

    $default  reduce using rule 4 (loader_lines)


state 127

    5 line: one_line NL .

    $default  reduce using rule 5 (line)


state 128

   34 instance_line: object_id constant_list .  [NL]
   38 constant_list: constant_list . constant
   39 constant: . ansi_string
   40         | . dq_string
   41         | . nchar_string
   42         | . bit_string
   43         | . sql2_date
   44         | . sql2_time
   45         | . sql2_timestamp
   46         | . utime
   47         | . sql2_datetime
   48         | . NULL_
   49         | . TIME_LIT4
   50         | . TIME_LIT42
   51         | . TIME_LIT3
   52         | . TIME_LIT31
   53         | . TIME_LIT2
   54         | . TIME_LIT1
   55         | . INT_LIT
   56         | . REAL_LIT
   57         | . DATE_LIT2
   58         | . monetary
   59         | . object_reference
   60         | . set_constant
   61         | . system_object_reference
   62 ansi_string: . Quote SQS_String_Body
   63 nchar_string: . NQuote SQS_String_Body
   64 dq_string: . DQuote DQS_String_Body
   65 sql2_date: . DATE_ Quote SQS_String_Body
   66 sql2_time: . TIME Quote SQS_String_Body
   67 sql2_timestamp: . TIMESTAMP Quote SQS_String_Body
   68 utime: . UTIME Quote SQS_String_Body
   69 sql2_datetime: . DATETIME Quote SQS_String_Body
   70 bit_string: . BQuote SQS_String_Body
   71           | . XQuote SQS_String_Body
   72 object_reference: . OBJECT_REFERENCE class_identifier
   73                 | . OBJECT_REFERENCE class_identifier instance_number
   77 set_constant: . SET_START_BRACE SET_END_BRACE
   78             | . SET_START_BRACE set_elements SET_END_BRACE
   84 system_object_reference: . ref_type Quote SQS_String_Body
   85 ref_type: . REF_ELO_INT
   86         | . REF_ELO_EXT
   87         | . REF_USER
   88         | . REF_CLASS
   89 monetary: . DOLLAR_SYMBOL REAL_LIT
   90         | . YEN_SYMBOL REAL_LIT
   91         | . WON_SYMBOL REAL_LIT
   92         | . TURKISH_LIRA_CURRENCY REAL_LIT
   93         | . BACKSLASH REAL_LIT
   94         | . BRITISH_POUND_SYMBOL REAL_LIT
   95         | . CAMBODIAN_RIEL_SYMBOL REAL_LIT
   96         | . CHINESE_RENMINBI_SYMBOL REAL_LIT
   97         | . INDIAN_RUPEE_SYMBOL REAL_LIT
   98         | . RUSSIAN_RUBLE_SYMBOL REAL_LIT
   99         | . AUSTRALIAN_DOLLAR_SYMBOL REAL_LIT
  100         | . CANADIAN_DOLLAR_SYMBOL REAL_LIT
  101         | . BRASILIAN_REAL_SYMBOL REAL_LIT
  102         | . ROMANIAN_LEU_SYMBOL REAL_LIT
  103         | . EURO_SYMBOL REAL_LIT
  104         | . SWISS_FRANC_SYMBOL REAL_LIT
  105         | . DANISH_KRONE_SYMBOL REAL_LIT
  106         | . NORWEGIAN_KRONE_SYMBOL REAL_LIT
  107         | . BULGARIAN_LEV_SYMBOL REAL_LIT
  108         | . VIETNAMESE_DONG_SYMBOL REAL_LIT
  109         | . CZECH_KORUNA_SYMBOL REAL_LIT
  110         | . POLISH_ZLOTY_SYMBOL REAL_LIT
  111         | . SWEDISH_KRONA_SYMBOL REAL_LIT
  112         | . CROATIAN_KUNA_SYMBOL REAL_LIT
  113         | . SERBIAN_DINAR_SYMBOL REAL_LIT

    NULL_                     shift, and go to state 5
    DATE_                     shift, and go to state 6
    TIME                      shift, and go to state 7
    UTIME                     shift, and go to state 8
    TIMESTAMP                 shift, and go to state 9
    DATETIME                  shift, and go to state 10
    REF_ELO_INT               shift, and go to state 13
    REF_ELO_EXT               shift, and go to state 14
    REF_USER                  shift, and go to state 15
    REF_CLASS                 shift, and go to state 16
    OBJECT_REFERENCE          shift, and go to state 17
    SET_START_BRACE           shift, and go to state 18
    REAL_LIT                  shift, and go to state 19
    INT_LIT                   shift, and go to state 20
    TIME_LIT4                 shift, and go to state 22
    TIME_LIT42                shift, and go to state 23
    TIME_LIT3                 shift, and go to state 24
    TIME_LIT31                shift, and go to state 25
    TIME_LIT2                 shift, and go to state 26
    TIME_LIT1                 shift, and go to state 27
    DATE_LIT2                 shift, and go to state 28
    YEN_SYMBOL                shift, and go to state 29
    WON_SYMBOL                shift, and go to state 30
    BACKSLASH                 shift, and go to state 31
    DOLLAR_SYMBOL             shift, and go to state 32
    TURKISH_LIRA_CURRENCY     shift, and go to state 33
    BRITISH_POUND_SYMBOL      shift, and go to state 34
    CAMBODIAN_RIEL_SYMBOL     shift, and go to state 35
    CHINESE_RENMINBI_SYMBOL   shift, and go to state 36
    INDIAN_RUPEE_SYMBOL       shift, and go to state 37
    RUSSIAN_RUBLE_SYMBOL      shift, and go to state 38
    AUSTRALIAN_DOLLAR_SYMBOL  shift, and go to state 39
    CANADIAN_DOLLAR_SYMBOL    shift, and go to state 40
    BRASILIAN_REAL_SYMBOL     shift, and go to state 41
    ROMANIAN_LEU_SYMBOL       shift, and go to state 42
    EURO_SYMBOL               shift, and go to state 43
    SWISS_FRANC_SYMBOL        shift, and go to state 44
    DANISH_KRONE_SYMBOL       shift, and go to state 45
    NORWEGIAN_KRONE_SYMBOL    shift, and go to state 46
    BULGARIAN_LEV_SYMBOL      shift, and go to state 47
    VIETNAMESE_DONG_SYMBOL    shift, and go to state 48
    CZECH_KORUNA_SYMBOL       shift, and go to state 49
    POLISH_ZLOTY_SYMBOL       shift, and go to state 50
    SWEDISH_KRONA_SYMBOL      shift, and go to state 51
    CROATIAN_KUNA_SYMBOL      shift, and go to state 52
    SERBIAN_DINAR_SYMBOL      shift, and go to state 53
    Quote                     shift, and go to state 54
    DQuote                    shift, and go to state 55
    NQuote                    shift, and go to state 56
    BQuote                    shift, and go to state 57
    XQuote                    shift, and go to state 58

    $default  reduce using rule 34 (instance_line)

    constant                 go to state 129
    ansi_string              go to state 69
    nchar_string             go to state 70
    dq_string                go to state 71
    sql2_date                go to state 72
    sql2_time                go to state 73
    sql2_timestamp           go to state 74
    utime                    go to state 75
    sql2_datetime            go to state 76
    bit_string               go to state 77
    object_reference         go to state 78
    set_constant             go to state 79
    system_object_reference  go to state 80
    ref_type                 go to state 81
    monetary                 go to state 82


state 129

   38 constant_list: constant_list constant .

    $default  reduce using rule 38 (constant_list)


state 130

   84 system_object_reference: ref_type Quote . SQS_String_Body

    SQS_String_Body  shift, and go to state 150


state 131

   65 sql2_date: DATE_ Quote SQS_String_Body .

    $default  reduce using rule 65 (sql2_date)


state 132

   66 sql2_time: TIME Quote SQS_String_Body .

    $default  reduce using rule 66 (sql2_time)


state 133

   68 utime: UTIME Quote SQS_String_Body .

    $default  reduce using rule 68 (utime)


state 134

   67 sql2_timestamp: TIMESTAMP Quote SQS_String_Body .

    $default  reduce using rule 67 (sql2_timestamp)


state 135

   69 sql2_datetime: DATETIME Quote SQS_String_Body .

    $default  reduce using rule 69 (sql2_datetime)


state 136

   11 id_command: CMD_ID IDENTIFIER INT_LIT .

    $default  reduce using rule 11 (id_command)


state 137

   17 attribute_list_qualifier: CLASS .

    $default  reduce using rule 17 (attribute_list_qualifier)


state 138

   18 attribute_list_qualifier: SHARED .

    $default  reduce using rule 18 (attribute_list_qualifier)


state 139

   19 attribute_list_qualifier: DEFAULT .

    $default  reduce using rule 19 (attribute_list_qualifier)


state 140

   20 attribute_list: START_PAREN . END_PAREN
   21               | START_PAREN . attribute_names END_PAREN
   22 attribute_names: . attribute_name
   23                | . attribute_names attribute_name
   24                | . attribute_names COMMA attribute_name
   25 attribute_name: . IDENTIFIER

    END_PAREN   shift, and go to state 151
    IDENTIFIER  shift, and go to state 152

    attribute_names  go to state 153
    attribute_name   go to state 154


state 141

   12 class_command: CMD_CLASS IDENTIFIER class_commamd_spec .

    $default  reduce using rule 12 (class_command)


state 142

   15 class_commamd_spec: attribute_list_qualifier . attribute_list
   16                   | attribute_list_qualifier . attribute_list constructor_spec
   20 attribute_list: . START_PAREN END_PAREN
   21               | . START_PAREN attribute_names END_PAREN

    START_PAREN  shift, and go to state 140

    attribute_list  go to state 155


state 143

   13 class_commamd_spec: attribute_list .  [NL]
   14                   | attribute_list . constructor_spec
   26 constructor_spec: . CMD_CONSTRUCTOR IDENTIFIER constructor_argument_list

    CMD_CONSTRUCTOR  shift, and go to state 156

    $default  reduce using rule 13 (class_commamd_spec)

    constructor_spec  go to state 157


state 144

   76 instance_number: OID_DELIMETER . INT_LIT

    INT_LIT  shift, and go to state 158


state 145

   73 object_reference: OBJECT_REFERENCE class_identifier instance_number .

    $default  reduce using rule 73 (object_reference)


state 146

   39 constant: . ansi_string
   40         | . dq_string
   41         | . nchar_string
   42         | . bit_string
   43         | . sql2_date
   44         | . sql2_time
   45         | . sql2_timestamp
   46         | . utime
   47         | . sql2_datetime
   48         | . NULL_
   49         | . TIME_LIT4
   50         | . TIME_LIT42
   51         | . TIME_LIT3
   52         | . TIME_LIT31
   53         | . TIME_LIT2
   54         | . TIME_LIT1
   55         | . INT_LIT
   56         | . REAL_LIT
   57         | . DATE_LIT2
   58         | . monetary
   59         | . object_reference
   60         | . set_constant
   61         | . system_object_reference
   62 ansi_string: . Quote SQS_String_Body
   63 nchar_string: . NQuote SQS_String_Body
   64 dq_string: . DQuote DQS_String_Body
   65 sql2_date: . DATE_ Quote SQS_String_Body
   66 sql2_time: . TIME Quote SQS_String_Body
   67 sql2_timestamp: . TIMESTAMP Quote SQS_String_Body
   68 utime: . UTIME Quote SQS_String_Body
   69 sql2_datetime: . DATETIME Quote SQS_String_Body
   70 bit_string: . BQuote SQS_String_Body
   71           | . XQuote SQS_String_Body
   72 object_reference: . OBJECT_REFERENCE class_identifier
   73                 | . OBJECT_REFERENCE class_identifier instance_number
   77 set_constant: . SET_START_BRACE SET_END_BRACE
   78             | . SET_START_BRACE set_elements SET_END_BRACE
   82 set_elements: set_elements NL . constant
   84 system_object_reference: . ref_type Quote SQS_String_Body
   85 ref_type: . REF_ELO_INT
   86         | . REF_ELO_EXT
   87         | . REF_USER
   88         | . REF_CLASS
   89 monetary: . DOLLAR_SYMBOL REAL_LIT
   90         | . YEN_SYMBOL REAL_LIT
   91         | . WON_SYMBOL REAL_LIT
   92         | . TURKISH_LIRA_CURRENCY REAL_LIT
   93         | . BACKSLASH REAL_LIT
   94         | . BRITISH_POUND_SYMBOL REAL_LIT
   95         | . CAMBODIAN_RIEL_SYMBOL REAL_LIT
   96         | . CHINESE_RENMINBI_SYMBOL REAL_LIT
   97         | . INDIAN_RUPEE_SYMBOL REAL_LIT
   98         | . RUSSIAN_RUBLE_SYMBOL REAL_LIT
   99         | . AUSTRALIAN_DOLLAR_SYMBOL REAL_LIT
  100         | . CANADIAN_DOLLAR_SYMBOL REAL_LIT
  101         | . BRASILIAN_REAL_SYMBOL REAL_LIT
  102         | . ROMANIAN_LEU_SYMBOL REAL_LIT
  103         | . EURO_SYMBOL REAL_LIT
  104         | . SWISS_FRANC_SYMBOL REAL_LIT
  105         | . DANISH_KRONE_SYMBOL REAL_LIT
  106         | . NORWEGIAN_KRONE_SYMBOL REAL_LIT
  107         | . BULGARIAN_LEV_SYMBOL REAL_LIT
  108         | . VIETNAMESE_DONG_SYMBOL REAL_LIT
  109         | . CZECH_KORUNA_SYMBOL REAL_LIT
  110         | . POLISH_ZLOTY_SYMBOL REAL_LIT
  111         | . SWEDISH_KRONA_SYMBOL REAL_LIT
  112         | . CROATIAN_KUNA_SYMBOL REAL_LIT
  113         | . SERBIAN_DINAR_SYMBOL REAL_LIT

    NULL_                     shift, and go to state 5
    DATE_                     shift, and go to state 6
    TIME                      shift, and go to state 7
    UTIME                     shift, and go to state 8
    TIMESTAMP                 shift, and go to state 9
    DATETIME                  shift, and go to state 10
    REF_ELO_INT               shift, and go to state 13
    REF_ELO_EXT               shift, and go to state 14
    REF_USER                  shift, and go to state 15
    REF_CLASS                 shift, and go to state 16
    OBJECT_REFERENCE          shift, and go to state 17
    SET_START_BRACE           shift, and go to state 18
    REAL_LIT                  shift, and go to state 19
    INT_LIT                   shift, and go to state 20
    TIME_LIT4                 shift, and go to state 22
    TIME_LIT42                shift, and go to state 23
    TIME_LIT3                 shift, and go to state 24
    TIME_LIT31                shift, and go to state 25
    TIME_LIT2                 shift, and go to state 26
    TIME_LIT1                 shift, and go to state 27
    DATE_LIT2                 shift, and go to state 28
    YEN_SYMBOL                shift, and go to state 29
    WON_SYMBOL                shift, and go to state 30
    BACKSLASH                 shift, and go to state 31
    DOLLAR_SYMBOL             shift, and go to state 32
    TURKISH_LIRA_CURRENCY     shift, and go to state 33
    BRITISH_POUND_SYMBOL      shift, and go to state 34
    CAMBODIAN_RIEL_SYMBOL     shift, and go to state 35
    CHINESE_RENMINBI_SYMBOL   shift, and go to state 36
    INDIAN_RUPEE_SYMBOL       shift, and go to state 37
    RUSSIAN_RUBLE_SYMBOL      shift, and go to state 38
    AUSTRALIAN_DOLLAR_SYMBOL  shift, and go to state 39
    CANADIAN_DOLLAR_SYMBOL    shift, and go to state 40
    BRASILIAN_REAL_SYMBOL     shift, and go to state 41
    ROMANIAN_LEU_SYMBOL       shift, and go to state 42
    EURO_SYMBOL               shift, and go to state 43
    SWISS_FRANC_SYMBOL        shift, and go to state 44
    DANISH_KRONE_SYMBOL       shift, and go to state 45
    NORWEGIAN_KRONE_SYMBOL    shift, and go to state 46
    BULGARIAN_LEV_SYMBOL      shift, and go to state 47
    VIETNAMESE_DONG_SYMBOL    shift, and go to state 48
    CZECH_KORUNA_SYMBOL       shift, and go to state 49
    POLISH_ZLOTY_SYMBOL       shift, and go to state 50
    SWEDISH_KRONA_SYMBOL      shift, and go to state 51
    CROATIAN_KUNA_SYMBOL      shift, and go to state 52
    SERBIAN_DINAR_SYMBOL      shift, and go to state 53
    Quote                     shift, and go to state 54
    DQuote                    shift, and go to state 55
    NQuote                    shift, and go to state 56
    BQuote                    shift, and go to state 57
    XQuote                    shift, and go to state 58

    constant                 go to state 159
    ansi_string              go to state 69
    nchar_string             go to state 70
    dq_string                go to state 71
    sql2_date                go to state 72
    sql2_time                go to state 73
    sql2_timestamp           go to state 74
    utime                    go to state 75
    sql2_datetime            go to state 76
    bit_string               go to state 77
    object_reference         go to state 78
    set_constant             go to state 79
    system_object_reference  go to state 80
    ref_type                 go to state 81
    monetary                 go to state 82


state 147

   78 set_constant: SET_START_BRACE set_elements SET_END_BRACE .

    $default  reduce using rule 78 (set_constant)


state 148

   39 constant: . ansi_string
   40         | . dq_string
   41         | . nchar_string
   42         | . bit_string
   43         | . sql2_date
   44         | . sql2_time
   45         | . sql2_timestamp
   46         | . utime
   47         | . sql2_datetime
   48         | . NULL_
   49         | . TIME_LIT4
   50         | . TIME_LIT42
   51         | . TIME_LIT3
   52         | . TIME_LIT31
   53         | . TIME_LIT2
   54         | . TIME_LIT1
   55         | . INT_LIT
   56         | . REAL_LIT
   57         | . DATE_LIT2
   58         | . monetary
   59         | . object_reference
   60         | . set_constant
   61         | . system_object_reference
   62 ansi_string: . Quote SQS_String_Body
   63 nchar_string: . NQuote SQS_String_Body
   64 dq_string: . DQuote DQS_String_Body
   65 sql2_date: . DATE_ Quote SQS_String_Body
   66 sql2_time: . TIME Quote SQS_String_Body
   67 sql2_timestamp: . TIMESTAMP Quote SQS_String_Body
   68 utime: . UTIME Quote SQS_String_Body
   69 sql2_datetime: . DATETIME Quote SQS_String_Body
   70 bit_string: . BQuote SQS_String_Body
   71           | . XQuote SQS_String_Body
   72 object_reference: . OBJECT_REFERENCE class_identifier
   73                 | . OBJECT_REFERENCE class_identifier instance_number
   77 set_constant: . SET_START_BRACE SET_END_BRACE
   78             | . SET_START_BRACE set_elements SET_END_BRACE
   81 set_elements: set_elements COMMA . constant
   83             | set_elements COMMA . NL constant
   84 system_object_reference: . ref_type Quote SQS_String_Body
   85 ref_type: . REF_ELO_INT
   86         | . REF_ELO_EXT
   87         | . REF_USER
   88         | . REF_CLASS
   89 monetary: . DOLLAR_SYMBOL REAL_LIT
   90         | . YEN_SYMBOL REAL_LIT
   91         | . WON_SYMBOL REAL_LIT
   92         | . TURKISH_LIRA_CURRENCY REAL_LIT
   93         | . BACKSLASH REAL_LIT
   94         | . BRITISH_POUND_SYMBOL REAL_LIT
   95         | . CAMBODIAN_RIEL_SYMBOL REAL_LIT
   96         | . CHINESE_RENMINBI_SYMBOL REAL_LIT
   97         | . INDIAN_RUPEE_SYMBOL REAL_LIT
   98         | . RUSSIAN_RUBLE_SYMBOL REAL_LIT
   99         | . AUSTRALIAN_DOLLAR_SYMBOL REAL_LIT
  100         | . CANADIAN_DOLLAR_SYMBOL REAL_LIT
  101         | . BRASILIAN_REAL_SYMBOL REAL_LIT
  102         | . ROMANIAN_LEU_SYMBOL REAL_LIT
  103         | . EURO_SYMBOL REAL_LIT
  104         | . SWISS_FRANC_SYMBOL REAL_LIT
  105         | . DANISH_KRONE_SYMBOL REAL_LIT
  106         | . NORWEGIAN_KRONE_SYMBOL REAL_LIT
  107         | . BULGARIAN_LEV_SYMBOL REAL_LIT
  108         | . VIETNAMESE_DONG_SYMBOL REAL_LIT
  109         | . CZECH_KORUNA_SYMBOL REAL_LIT
  110         | . POLISH_ZLOTY_SYMBOL REAL_LIT
  111         | . SWEDISH_KRONA_SYMBOL REAL_LIT
  112         | . CROATIAN_KUNA_SYMBOL REAL_LIT
  113         | . SERBIAN_DINAR_SYMBOL REAL_LIT

    NL                        shift, and go to state 160
    NULL_                     shift, and go to state 5
    DATE_                     shift, and go to state 6
    TIME                      shift, and go to state 7
    UTIME                     shift, and go to state 8
    TIMESTAMP                 shift, and go to state 9
    DATETIME                  shift, and go to state 10
    REF_ELO_INT               shift, and go to state 13
    REF_ELO_EXT               shift, and go to state 14
    REF_USER                  shift, and go to state 15
    REF_CLASS                 shift, and go to state 16
    OBJECT_REFERENCE          shift, and go to state 17
    SET_START_BRACE           shift, and go to state 18
    REAL_LIT                  shift, and go to state 19
    INT_LIT                   shift, and go to state 20
    TIME_LIT4                 shift, and go to state 22
    TIME_LIT42                shift, and go to state 23
    TIME_LIT3                 shift, and go to state 24
    TIME_LIT31                shift, and go to state 25
    TIME_LIT2                 shift, and go to state 26
    TIME_LIT1                 shift, and go to state 27
    DATE_LIT2                 shift, and go to state 28
    YEN_SYMBOL                shift, and go to state 29
    WON_SYMBOL                shift, and go to state 30
    BACKSLASH                 shift, and go to state 31
    DOLLAR_SYMBOL             shift, and go to state 32
    TURKISH_LIRA_CURRENCY     shift, and go to state 33
    BRITISH_POUND_SYMBOL      shift, and go to state 34
    CAMBODIAN_RIEL_SYMBOL     shift, and go to state 35
    CHINESE_RENMINBI_SYMBOL   shift, and go to state 36
    INDIAN_RUPEE_SYMBOL       shift, and go to state 37
    RUSSIAN_RUBLE_SYMBOL      shift, and go to state 38
    AUSTRALIAN_DOLLAR_SYMBOL  shift, and go to state 39
    CANADIAN_DOLLAR_SYMBOL    shift, and go to state 40
    BRASILIAN_REAL_SYMBOL     shift, and go to state 41
    ROMANIAN_LEU_SYMBOL       shift, and go to state 42
    EURO_SYMBOL               shift, and go to state 43
    SWISS_FRANC_SYMBOL        shift, and go to state 44
    DANISH_KRONE_SYMBOL       shift, and go to state 45
    NORWEGIAN_KRONE_SYMBOL    shift, and go to state 46
    BULGARIAN_LEV_SYMBOL      shift, and go to state 47
    VIETNAMESE_DONG_SYMBOL    shift, and go to state 48
    CZECH_KORUNA_SYMBOL       shift, and go to state 49
    POLISH_ZLOTY_SYMBOL       shift, and go to state 50
    SWEDISH_KRONA_SYMBOL      shift, and go to state 51
    CROATIAN_KUNA_SYMBOL      shift, and go to state 52
    SERBIAN_DINAR_SYMBOL      shift, and go to state 53
    Quote                     shift, and go to state 54
    DQuote                    shift, and go to state 55
    NQuote                    shift, and go to state 56
    BQuote                    shift, and go to state 57
    XQuote                    shift, and go to state 58

    constant                 go to state 161
    ansi_string              go to state 69
    nchar_string             go to state 70
    dq_string                go to state 71
    sql2_date                go to state 72
    sql2_time                go to state 73
    sql2_timestamp           go to state 74
    utime                    go to state 75
    sql2_datetime            go to state 76
    bit_string               go to state 77
    object_reference         go to state 78
    set_constant             go to state 79
    system_object_reference  go to state 80
    ref_type                 go to state 81
    monetary                 go to state 82


state 149

   80 set_elements: set_elements constant .

    $default  reduce using rule 80 (set_elements)


state 150

   84 system_object_reference: ref_type Quote SQS_String_Body .

    $default  reduce using rule 84 (system_object_reference)


state 151

   20 attribute_list: START_PAREN END_PAREN .

    $default  reduce using rule 20 (attribute_list)


state 152

   25 attribute_name: IDENTIFIER .

    $default  reduce using rule 25 (attribute_name)


state 153

   21 attribute_list: START_PAREN attribute_names . END_PAREN
   23 attribute_names: attribute_names . attribute_name
   24                | attribute_names . COMMA attribute_name
   25 attribute_name: . IDENTIFIER

    END_PAREN   shift, and go to state 162
    IDENTIFIER  shift, and go to state 152
    COMMA       shift, and go to state 163

    attribute_name  go to state 164


state 154

   22 attribute_names: attribute_name .

    $default  reduce using rule 22 (attribute_names)


state 155

   15 class_commamd_spec: attribute_list_qualifier attribute_list .  [NL]
   16                   | attribute_list_qualifier attribute_list . constructor_spec
   26 constructor_spec: . CMD_CONSTRUCTOR IDENTIFIER constructor_argument_list

    CMD_CONSTRUCTOR  shift, and go to state 156

    $default  reduce using rule 15 (class_commamd_spec)

    constructor_spec  go to state 165


state 156

   26 constructor_spec: CMD_CONSTRUCTOR . IDENTIFIER constructor_argument_list

    IDENTIFIER  shift, and go to state 166


state 157

   14 class_commamd_spec: attribute_list constructor_spec .

    $default  reduce using rule 14 (class_commamd_spec)


state 158

   76 instance_number: OID_DELIMETER INT_LIT .

    $default  reduce using rule 76 (instance_number)


state 159

   82 set_elements: set_elements NL constant .

    $default  reduce using rule 82 (set_elements)


state 160

   39 constant: . ansi_string
   40         | . dq_string
   41         | . nchar_string
   42         | . bit_string
   43         | . sql2_date
   44         | . sql2_time
   45         | . sql2_timestamp
   46         | . utime
   47         | . sql2_datetime
   48         | . NULL_
   49         | . TIME_LIT4
   50         | . TIME_LIT42
   51         | . TIME_LIT3
   52         | . TIME_LIT31
   53         | . TIME_LIT2
   54         | . TIME_LIT1
   55         | . INT_LIT
   56         | . REAL_LIT
   57         | . DATE_LIT2
   58         | . monetary
   59         | . object_reference
   60         | . set_constant
   61         | . system_object_reference
   62 ansi_string: . Quote SQS_String_Body
   63 nchar_string: . NQuote SQS_String_Body
   64 dq_string: . DQuote DQS_String_Body
   65 sql2_date: . DATE_ Quote SQS_String_Body
   66 sql2_time: . TIME Quote SQS_String_Body
   67 sql2_timestamp: . TIMESTAMP Quote SQS_String_Body
   68 utime: . UTIME Quote SQS_String_Body
   69 sql2_datetime: . DATETIME Quote SQS_String_Body
   70 bit_string: . BQuote SQS_String_Body
   71           | . XQuote SQS_String_Body
   72 object_reference: . OBJECT_REFERENCE class_identifier
   73                 | . OBJECT_REFERENCE class_identifier instance_number
   77 set_constant: . SET_START_BRACE SET_END_BRACE
   78             | . SET_START_BRACE set_elements SET_END_BRACE
   83 set_elements: set_elements COMMA NL . constant
   84 system_object_reference: . ref_type Quote SQS_String_Body
   85 ref_type: . REF_ELO_INT
   86         | . REF_ELO_EXT
   87         | . REF_USER
   88         | . REF_CLASS
   89 monetary: . DOLLAR_SYMBOL REAL_LIT
   90         | . YEN_SYMBOL REAL_LIT
   91         | . WON_SYMBOL REAL_LIT
   92         | . TURKISH_LIRA_CURRENCY REAL_LIT
   93         | . BACKSLASH REAL_LIT
   94         | . BRITISH_POUND_SYMBOL REAL_LIT
   95         | . CAMBODIAN_RIEL_SYMBOL REAL_LIT
   96         | . CHINESE_RENMINBI_SYMBOL REAL_LIT
   97         | . INDIAN_RUPEE_SYMBOL REAL_LIT
   98         | . RUSSIAN_RUBLE_SYMBOL REAL_LIT
   99         | . AUSTRALIAN_DOLLAR_SYMBOL REAL_LIT
  100         | . CANADIAN_DOLLAR_SYMBOL REAL_LIT
  101         | . BRASILIAN_REAL_SYMBOL REAL_LIT
  102         | . ROMANIAN_LEU_SYMBOL REAL_LIT
  103         | . EURO_SYMBOL REAL_LIT
  104         | . SWISS_FRANC_SYMBOL REAL_LIT
  105         | . DANISH_KRONE_SYMBOL REAL_LIT
  106         | . NORWEGIAN_KRONE_SYMBOL REAL_LIT
  107         | . BULGARIAN_LEV_SYMBOL REAL_LIT
  108         | . VIETNAMESE_DONG_SYMBOL REAL_LIT
  109         | . CZECH_KORUNA_SYMBOL REAL_LIT
  110         | . POLISH_ZLOTY_SYMBOL REAL_LIT
  111         | . SWEDISH_KRONA_SYMBOL REAL_LIT
  112         | . CROATIAN_KUNA_SYMBOL REAL_LIT
  113         | . SERBIAN_DINAR_SYMBOL REAL_LIT

    NULL_                     shift, and go to state 5
    DATE_                     shift, and go to state 6
    TIME                      shift, and go to state 7
    UTIME                     shift, and go to state 8
    TIMESTAMP                 shift, and go to state 9
    DATETIME                  shift, and go to state 10
    REF_ELO_INT               shift, and go to state 13
    REF_ELO_EXT               shift, and go to state 14
    REF_USER                  shift, and go to state 15
    REF_CLASS                 shift, and go to state 16
    OBJECT_REFERENCE          shift, and go to state 17
    SET_START_BRACE           shift, and go to state 18
    REAL_LIT                  shift, and go to state 19
    INT_LIT                   shift, and go to state 20
    TIME_LIT4                 shift, and go to state 22
    TIME_LIT42                shift, and go to state 23
    TIME_LIT3                 shift, and go to state 24
    TIME_LIT31                shift, and go to state 25
    TIME_LIT2                 shift, and go to state 26
    TIME_LIT1                 shift, and go to state 27
    DATE_LIT2                 shift, and go to state 28
    YEN_SYMBOL                shift, and go to state 29
    WON_SYMBOL                shift, and go to state 30
    BACKSLASH                 shift, and go to state 31
    DOLLAR_SYMBOL             shift, and go to state 32
    TURKISH_LIRA_CURRENCY     shift, and go to state 33
    BRITISH_POUND_SYMBOL      shift, and go to state 34
    CAMBODIAN_RIEL_SYMBOL     shift, and go to state 35
    CHINESE_RENMINBI_SYMBOL   shift, and go to state 36
    INDIAN_RUPEE_SYMBOL       shift, and go to state 37
    RUSSIAN_RUBLE_SYMBOL      shift, and go to state 38
    AUSTRALIAN_DOLLAR_SYMBOL  shift, and go to state 39
    CANADIAN_DOLLAR_SYMBOL    shift, and go to state 40
    BRASILIAN_REAL_SYMBOL     shift, and go to state 41
    ROMANIAN_LEU_SYMBOL       shift, and go to state 42
    EURO_SYMBOL               shift, and go to state 43
    SWISS_FRANC_SYMBOL        shift, and go to state 44
    DANISH_KRONE_SYMBOL       shift, and go to state 45
    NORWEGIAN_KRONE_SYMBOL    shift, and go to state 46
    BULGARIAN_LEV_SYMBOL      shift, and go to state 47
    VIETNAMESE_DONG_SYMBOL    shift, and go to state 48
    CZECH_KORUNA_SYMBOL       shift, and go to state 49
    POLISH_ZLOTY_SYMBOL       shift, and go to state 50
    SWEDISH_KRONA_SYMBOL      shift, and go to state 51
    CROATIAN_KUNA_SYMBOL      shift, and go to state 52
    SERBIAN_DINAR_SYMBOL      shift, and go to state 53
    Quote                     shift, and go to state 54
    DQuote                    shift, and go to state 55
    NQuote                    shift, and go to state 56
    BQuote                    shift, and go to state 57
    XQuote                    shift, and go to state 58

    constant                 go to state 167
    ansi_string              go to state 69
    nchar_string             go to state 70
    dq_string                go to state 71
    sql2_date                go to state 72
    sql2_time                go to state 73
    sql2_timestamp           go to state 74
    utime                    go to state 75
    sql2_datetime            go to state 76
    bit_string               go to state 77
    object_reference         go to state 78
    set_constant             go to state 79
    system_object_reference  go to state 80
    ref_type                 go to state 81
    monetary                 go to state 82


state 161

   81 set_elements: set_elements COMMA constant .

    $default  reduce using rule 81 (set_elements)


state 162

   21 attribute_list: START_PAREN attribute_names END_PAREN .

    $default  reduce using rule 21 (attribute_list)


state 163

   24 attribute_names: attribute_names COMMA . attribute_name
   25 attribute_name: . IDENTIFIER

    IDENTIFIER  shift, and go to state 152

    attribute_name  go to state 168


state 164

   23 attribute_names: attribute_names attribute_name .

    $default  reduce using rule 23 (attribute_names)


state 165

   16 class_commamd_spec: attribute_list_qualifier attribute_list constructor_spec .

    $default  reduce using rule 16 (class_commamd_spec)


state 166

   26 constructor_spec: CMD_CONSTRUCTOR IDENTIFIER . constructor_argument_list
   27 constructor_argument_list: . START_PAREN END_PAREN
   28                          | . START_PAREN argument_names END_PAREN

    START_PAREN  shift, and go to state 169

    constructor_argument_list  go to state 170


state 167

   83 set_elements: set_elements COMMA NL constant .

    $default  reduce using rule 83 (set_elements)


state 168

   24 attribute_names: attribute_names COMMA attribute_name .

    $default  reduce using rule 24 (attribute_names)


state 169

   27 constructor_argument_list: START_PAREN . END_PAREN
   28                          | START_PAREN . argument_names END_PAREN
   29 argument_names: . argument_name
   30               | . argument_names argument_name
   31               | . argument_names COMMA argument_name
   32 argument_name: . IDENTIFIER

    END_PAREN   shift, and go to state 171
    IDENTIFIER  shift, and go to state 172

    argument_names  go to state 173
    argument_name   go to state 174


state 170

   26 constructor_spec: CMD_CONSTRUCTOR IDENTIFIER constructor_argument_list .

    $default  reduce using rule 26 (constructor_spec)


state 171

   27 constructor_argument_list: START_PAREN END_PAREN .

    $default  reduce using rule 27 (constructor_argument_list)


state 172

   32 argument_name: IDENTIFIER .

    $default  reduce using rule 32 (argument_name)


state 173

   28 constructor_argument_list: START_PAREN argument_names . END_PAREN
   30 argument_names: argument_names . argument_name
   31               | argument_names . COMMA argument_name
   32 argument_name: . IDENTIFIER

    END_PAREN   shift, and go to state 175
    IDENTIFIER  shift, and go to state 172
    COMMA       shift, and go to state 176

    argument_name  go to state 177


state 174

   29 argument_names: argument_name .

    $default  reduce using rule 29 (argument_names)


state 175

   28 constructor_argument_list: START_PAREN argument_names END_PAREN .

    $default  reduce using rule 28 (constructor_argument_list)


state 176

   31 argument_names: argument_names COMMA . argument_name
   32 argument_name: . IDENTIFIER

    IDENTIFIER  shift, and go to state 172

    argument_name  go to state 178


state 177

   30 argument_names: argument_names argument_name .

    $default  reduce using rule 30 (argument_names)


state 178

   31 argument_names: argument_names COMMA argument_name .

    $default  reduce using rule 31 (argument_names)
